{'activation_fn': 'relu',
 'batch_size': 64,
 'cond_label_size': None,
 'conditional': False,
 'data_dir': './data/',
 'dataset': 'MNIST',
 'device': device(type='cpu'),
 'evaluate': False,
 'flip_toy_var_order': False,
 'generate': False,
 'hidden_size': 100,
 'input_dims': (1, 28, 28),
 'input_order': 'sequential',
 'input_size': 784,
 'log_interval': 1000,
 'lr': 0.0001,
 'model': 'realnvp',
 'n_blocks': 5,
 'n_components': 1,
 'n_epochs': 5,
 'n_hidden': 1,
 'no_batch_norm': False,
 'no_cuda': False,
 'output_dir': './results/',
 'restore_file': None,
 'results_file': './results/results.txt',
 'seed': 1,
 'start_epoch': 0,
 'train': False}
RealNVP(
  (net): FlowSequential(
    (0): LinearMaskedCoupling(
      (s_net): Sequential(
        (0): Linear(in_features=784, out_features=100, bias=True)
        (1): Tanh()
        (2): Linear(in_features=100, out_features=100, bias=True)
        (3): Tanh()
        (4): Linear(in_features=100, out_features=784, bias=True)
      )
      (t_net): Sequential(
        (0): Linear(in_features=784, out_features=100, bias=True)
        (1): ReLU()
        (2): Linear(in_features=100, out_features=100, bias=True)
        (3): ReLU()
        (4): Linear(in_features=100, out_features=784, bias=True)
      )
    )
    (1): BatchNorm()
    (2): LinearMaskedCoupling(
      (s_net): Sequential(
        (0): Linear(in_features=784, out_features=100, bias=True)
        (1): Tanh()
        (2): Linear(in_features=100, out_features=100, bias=True)
        (3): Tanh()
        (4): Linear(in_features=100, out_features=784, bias=True)
      )
      (t_net): Sequential(
        (0): Linear(in_features=784, out_features=100, bias=True)
        (1): ReLU()
        (2): Linear(in_features=100, out_features=100, bias=True)
        (3): ReLU()
        (4): Linear(in_features=100, out_features=784, bias=True)
      )
    )
    (3): BatchNorm()
    (4): LinearMaskedCoupling(
      (s_net): Sequential(
        (0): Linear(in_features=784, out_features=100, bias=True)
        (1): Tanh()
        (2): Linear(in_features=100, out_features=100, bias=True)
        (3): Tanh()
        (4): Linear(in_features=100, out_features=784, bias=True)
      )
      (t_net): Sequential(
        (0): Linear(in_features=784, out_features=100, bias=True)
        (1): ReLU()
        (2): Linear(in_features=100, out_features=100, bias=True)
        (3): ReLU()
        (4): Linear(in_features=100, out_features=784, bias=True)
      )
    )
    (5): BatchNorm()
    (6): LinearMaskedCoupling(
      (s_net): Sequential(
        (0): Linear(in_features=784, out_features=100, bias=True)
        (1): Tanh()
        (2): Linear(in_features=100, out_features=100, bias=True)
        (3): Tanh()
        (4): Linear(in_features=100, out_features=784, bias=True)
      )
      (t_net): Sequential(
        (0): Linear(in_features=784, out_features=100, bias=True)
        (1): ReLU()
        (2): Linear(in_features=100, out_features=100, bias=True)
        (3): ReLU()
        (4): Linear(in_features=100, out_features=784, bias=True)
      )
    )
    (7): BatchNorm()
    (8): LinearMaskedCoupling(
      (s_net): Sequential(
        (0): Linear(in_features=784, out_features=100, bias=True)
        (1): Tanh()
        (2): Linear(in_features=100, out_features=100, bias=True)
        (3): Tanh()
        (4): Linear(in_features=100, out_features=784, bias=True)
      )
      (t_net): Sequential(
        (0): Linear(in_features=784, out_features=100, bias=True)
        (1): ReLU()
        (2): Linear(in_features=100, out_features=100, bias=True)
        (3): ReLU()
        (4): Linear(in_features=100, out_features=784, bias=True)
      )
    )
    (9): BatchNorm()
  )
)
{'activation_fn': 'relu',
 'batch_size': 64,
 'cond_label_size': None,
 'conditional': False,
 'data_dir': './data/',
 'dataset': 'MNIST',
 'device': device(type='cpu'),
 'evaluate': False,
 'flip_toy_var_order': False,
 'generate': False,
 'hidden_size': 100,
 'input_dims': (1, 28, 28),
 'input_order': 'sequential',
 'input_size': 784,
 'log_interval': 1000,
 'lr': 0.0001,
 'model': 'realnvp',
 'n_blocks': 5,
 'n_components': 1,
 'n_epochs': 5,
 'n_hidden': 1,
 'no_batch_norm': False,
 'no_cuda': False,
 'output_dir': './results/',
 'restore_file': None,
 'results_file': './results/results.txt',
 'seed': 1,
 'start_epoch': 0,
 'train': True}
RealNVP(
  (net): FlowSequential(
    (0): LinearMaskedCoupling(
      (s_net): Sequential(
        (0): Linear(in_features=784, out_features=100, bias=True)
        (1): Tanh()
        (2): Linear(in_features=100, out_features=100, bias=True)
        (3): Tanh()
        (4): Linear(in_features=100, out_features=784, bias=True)
      )
      (t_net): Sequential(
        (0): Linear(in_features=784, out_features=100, bias=True)
        (1): ReLU()
        (2): Linear(in_features=100, out_features=100, bias=True)
        (3): ReLU()
        (4): Linear(in_features=100, out_features=784, bias=True)
      )
    )
    (1): BatchNorm()
    (2): LinearMaskedCoupling(
      (s_net): Sequential(
        (0): Linear(in_features=784, out_features=100, bias=True)
        (1): Tanh()
        (2): Linear(in_features=100, out_features=100, bias=True)
        (3): Tanh()
        (4): Linear(in_features=100, out_features=784, bias=True)
      )
      (t_net): Sequential(
        (0): Linear(in_features=784, out_features=100, bias=True)
        (1): ReLU()
        (2): Linear(in_features=100, out_features=100, bias=True)
        (3): ReLU()
        (4): Linear(in_features=100, out_features=784, bias=True)
      )
    )
    (3): BatchNorm()
    (4): LinearMaskedCoupling(
      (s_net): Sequential(
        (0): Linear(in_features=784, out_features=100, bias=True)
        (1): Tanh()
        (2): Linear(in_features=100, out_features=100, bias=True)
        (3): Tanh()
        (4): Linear(in_features=100, out_features=784, bias=True)
      )
      (t_net): Sequential(
        (0): Linear(in_features=784, out_features=100, bias=True)
        (1): ReLU()
        (2): Linear(in_features=100, out_features=100, bias=True)
        (3): ReLU()
        (4): Linear(in_features=100, out_features=784, bias=True)
      )
    )
    (5): BatchNorm()
    (6): LinearMaskedCoupling(
      (s_net): Sequential(
        (0): Linear(in_features=784, out_features=100, bias=True)
        (1): Tanh()
        (2): Linear(in_features=100, out_features=100, bias=True)
        (3): Tanh()
        (4): Linear(in_features=100, out_features=784, bias=True)
      )
      (t_net): Sequential(
        (0): Linear(in_features=784, out_features=100, bias=True)
        (1): ReLU()
        (2): Linear(in_features=100, out_features=100, bias=True)
        (3): ReLU()
        (4): Linear(in_features=100, out_features=784, bias=True)
      )
    )
    (7): BatchNorm()
    (8): LinearMaskedCoupling(
      (s_net): Sequential(
        (0): Linear(in_features=784, out_features=100, bias=True)
        (1): Tanh()
        (2): Linear(in_features=100, out_features=100, bias=True)
        (3): Tanh()
        (4): Linear(in_features=100, out_features=784, bias=True)
      )
      (t_net): Sequential(
        (0): Linear(in_features=784, out_features=100, bias=True)
        (1): ReLU()
        (2): Linear(in_features=100, out_features=100, bias=True)
        (3): ReLU()
        (4): Linear(in_features=100, out_features=784, bias=True)
      )
    )
    (9): BatchNorm()
  )
)
{'activation_fn': 'relu',
 'batch_size': 32,
 'cond_label_size': None,
 'conditional': False,
 'data_dir': './data/',
 'dataset': 'MNIST',
 'device': device(type='cpu'),
 'evaluate': False,
 'flip_toy_var_order': False,
 'generate': False,
 'hidden_size': 100,
 'input_dims': (1, 28, 28),
 'input_order': 'sequential',
 'input_size': 784,
 'log_interval': 1000,
 'lr': 0.0001,
 'model': 'realnvp',
 'n_blocks': 5,
 'n_components': 1,
 'n_epochs': 1,
 'n_hidden': 1,
 'no_batch_norm': False,
 'no_cuda': False,
 'output_dir': './results/',
 'restore_file': None,
 'results_file': './results/results.txt',
 'seed': 1,
 'start_epoch': 0,
 'train': True}
RealNVP(
  (net): FlowSequential(
    (0): LinearMaskedCoupling(
      (s_net): Sequential(
        (0): Linear(in_features=784, out_features=100, bias=True)
        (1): Tanh()
        (2): Linear(in_features=100, out_features=100, bias=True)
        (3): Tanh()
        (4): Linear(in_features=100, out_features=784, bias=True)
      )
      (t_net): Sequential(
        (0): Linear(in_features=784, out_features=100, bias=True)
        (1): ReLU()
        (2): Linear(in_features=100, out_features=100, bias=True)
        (3): ReLU()
        (4): Linear(in_features=100, out_features=784, bias=True)
      )
    )
    (1): BatchNorm()
    (2): LinearMaskedCoupling(
      (s_net): Sequential(
        (0): Linear(in_features=784, out_features=100, bias=True)
        (1): Tanh()
        (2): Linear(in_features=100, out_features=100, bias=True)
        (3): Tanh()
        (4): Linear(in_features=100, out_features=784, bias=True)
      )
      (t_net): Sequential(
        (0): Linear(in_features=784, out_features=100, bias=True)
        (1): ReLU()
        (2): Linear(in_features=100, out_features=100, bias=True)
        (3): ReLU()
        (4): Linear(in_features=100, out_features=784, bias=True)
      )
    )
    (3): BatchNorm()
    (4): LinearMaskedCoupling(
      (s_net): Sequential(
        (0): Linear(in_features=784, out_features=100, bias=True)
        (1): Tanh()
        (2): Linear(in_features=100, out_features=100, bias=True)
        (3): Tanh()
        (4): Linear(in_features=100, out_features=784, bias=True)
      )
      (t_net): Sequential(
        (0): Linear(in_features=784, out_features=100, bias=True)
        (1): ReLU()
        (2): Linear(in_features=100, out_features=100, bias=True)
        (3): ReLU()
        (4): Linear(in_features=100, out_features=784, bias=True)
      )
    )
    (5): BatchNorm()
    (6): LinearMaskedCoupling(
      (s_net): Sequential(
        (0): Linear(in_features=784, out_features=100, bias=True)
        (1): Tanh()
        (2): Linear(in_features=100, out_features=100, bias=True)
        (3): Tanh()
        (4): Linear(in_features=100, out_features=784, bias=True)
      )
      (t_net): Sequential(
        (0): Linear(in_features=784, out_features=100, bias=True)
        (1): ReLU()
        (2): Linear(in_features=100, out_features=100, bias=True)
        (3): ReLU()
        (4): Linear(in_features=100, out_features=784, bias=True)
      )
    )
    (7): BatchNorm()
    (8): LinearMaskedCoupling(
      (s_net): Sequential(
        (0): Linear(in_features=784, out_features=100, bias=True)
        (1): Tanh()
        (2): Linear(in_features=100, out_features=100, bias=True)
        (3): Tanh()
        (4): Linear(in_features=100, out_features=784, bias=True)
      )
      (t_net): Sequential(
        (0): Linear(in_features=784, out_features=100, bias=True)
        (1): ReLU()
        (2): Linear(in_features=100, out_features=100, bias=True)
        (3): ReLU()
        (4): Linear(in_features=100, out_features=784, bias=True)
      )
    )
    (9): BatchNorm()
  )
)
Evaluate (epoch 0) -- logp(x) = -1412.367 +/- 1.620
{'activation_fn': 'relu',
 'batch_size': 32,
 'cond_label_size': None,
 'conditional': False,
 'data_dir': './data/',
 'dataset': 'MNIST',
 'device': device(type='cpu'),
 'evaluate': True,
 'flip_toy_var_order': False,
 'generate': False,
 'hidden_size': 100,
 'input_dims': (1, 28, 28),
 'input_order': 'sequential',
 'input_size': 784,
 'log_interval': 1000,
 'lr': 0.0001,
 'model': 'realnvp',
 'n_blocks': 5,
 'n_components': 1,
 'n_epochs': 1,
 'n_hidden': 1,
 'no_batch_norm': False,
 'no_cuda': False,
 'output_dir': './results/',
 'restore_file': None,
 'results_file': './results/results.txt',
 'seed': 1,
 'start_epoch': 0,
 'train': True}
RealNVP(
  (net): FlowSequential(
    (0): LinearMaskedCoupling(
      (s_net): Sequential(
        (0): Linear(in_features=784, out_features=100, bias=True)
        (1): Tanh()
        (2): Linear(in_features=100, out_features=100, bias=True)
        (3): Tanh()
        (4): Linear(in_features=100, out_features=784, bias=True)
      )
      (t_net): Sequential(
        (0): Linear(in_features=784, out_features=100, bias=True)
        (1): ReLU()
        (2): Linear(in_features=100, out_features=100, bias=True)
        (3): ReLU()
        (4): Linear(in_features=100, out_features=784, bias=True)
      )
    )
    (1): BatchNorm()
    (2): LinearMaskedCoupling(
      (s_net): Sequential(
        (0): Linear(in_features=784, out_features=100, bias=True)
        (1): Tanh()
        (2): Linear(in_features=100, out_features=100, bias=True)
        (3): Tanh()
        (4): Linear(in_features=100, out_features=784, bias=True)
      )
      (t_net): Sequential(
        (0): Linear(in_features=784, out_features=100, bias=True)
        (1): ReLU()
        (2): Linear(in_features=100, out_features=100, bias=True)
        (3): ReLU()
        (4): Linear(in_features=100, out_features=784, bias=True)
      )
    )
    (3): BatchNorm()
    (4): LinearMaskedCoupling(
      (s_net): Sequential(
        (0): Linear(in_features=784, out_features=100, bias=True)
        (1): Tanh()
        (2): Linear(in_features=100, out_features=100, bias=True)
        (3): Tanh()
        (4): Linear(in_features=100, out_features=784, bias=True)
      )
      (t_net): Sequential(
        (0): Linear(in_features=784, out_features=100, bias=True)
        (1): ReLU()
        (2): Linear(in_features=100, out_features=100, bias=True)
        (3): ReLU()
        (4): Linear(in_features=100, out_features=784, bias=True)
      )
    )
    (5): BatchNorm()
    (6): LinearMaskedCoupling(
      (s_net): Sequential(
        (0): Linear(in_features=784, out_features=100, bias=True)
        (1): Tanh()
        (2): Linear(in_features=100, out_features=100, bias=True)
        (3): Tanh()
        (4): Linear(in_features=100, out_features=784, bias=True)
      )
      (t_net): Sequential(
        (0): Linear(in_features=784, out_features=100, bias=True)
        (1): ReLU()
        (2): Linear(in_features=100, out_features=100, bias=True)
        (3): ReLU()
        (4): Linear(in_features=100, out_features=784, bias=True)
      )
    )
    (7): BatchNorm()
    (8): LinearMaskedCoupling(
      (s_net): Sequential(
        (0): Linear(in_features=784, out_features=100, bias=True)
        (1): Tanh()
        (2): Linear(in_features=100, out_features=100, bias=True)
        (3): Tanh()
        (4): Linear(in_features=100, out_features=784, bias=True)
      )
      (t_net): Sequential(
        (0): Linear(in_features=784, out_features=100, bias=True)
        (1): ReLU()
        (2): Linear(in_features=100, out_features=100, bias=True)
        (3): ReLU()
        (4): Linear(in_features=100, out_features=784, bias=True)
      )
    )
    (9): BatchNorm()
  )
)
Evaluate (epoch 0) -- logp(x) = -1412.367 +/- 1.620
Evaluate logp(x) = -1412.367 +/- 1.620
{'activation_fn': 'relu',
 'batch_size': 32,
 'cond_label_size': None,
 'conditional': False,
 'data_dir': './data/',
 'dataset': 'MNIST',
 'device': device(type='cpu'),
 'evaluate': True,
 'flip_toy_var_order': False,
 'generate': True,
 'hidden_size': 100,
 'input_dims': (1, 28, 28),
 'input_order': 'sequential',
 'input_size': 784,
 'log_interval': 1000,
 'lr': 0.0001,
 'model': 'realnvp',
 'n_blocks': 5,
 'n_components': 1,
 'n_epochs': 1,
 'n_hidden': 1,
 'no_batch_norm': False,
 'no_cuda': False,
 'output_dir': './results/',
 'restore_file': None,
 'results_file': './results/results.txt',
 'seed': 1,
 'start_epoch': 0,
 'train': True}
RealNVP(
  (net): FlowSequential(
    (0): LinearMaskedCoupling(
      (s_net): Sequential(
        (0): Linear(in_features=784, out_features=100, bias=True)
        (1): Tanh()
        (2): Linear(in_features=100, out_features=100, bias=True)
        (3): Tanh()
        (4): Linear(in_features=100, out_features=784, bias=True)
      )
      (t_net): Sequential(
        (0): Linear(in_features=784, out_features=100, bias=True)
        (1): ReLU()
        (2): Linear(in_features=100, out_features=100, bias=True)
        (3): ReLU()
        (4): Linear(in_features=100, out_features=784, bias=True)
      )
    )
    (1): BatchNorm()
    (2): LinearMaskedCoupling(
      (s_net): Sequential(
        (0): Linear(in_features=784, out_features=100, bias=True)
        (1): Tanh()
        (2): Linear(in_features=100, out_features=100, bias=True)
        (3): Tanh()
        (4): Linear(in_features=100, out_features=784, bias=True)
      )
      (t_net): Sequential(
        (0): Linear(in_features=784, out_features=100, bias=True)
        (1): ReLU()
        (2): Linear(in_features=100, out_features=100, bias=True)
        (3): ReLU()
        (4): Linear(in_features=100, out_features=784, bias=True)
      )
    )
    (3): BatchNorm()
    (4): LinearMaskedCoupling(
      (s_net): Sequential(
        (0): Linear(in_features=784, out_features=100, bias=True)
        (1): Tanh()
        (2): Linear(in_features=100, out_features=100, bias=True)
        (3): Tanh()
        (4): Linear(in_features=100, out_features=784, bias=True)
      )
      (t_net): Sequential(
        (0): Linear(in_features=784, out_features=100, bias=True)
        (1): ReLU()
        (2): Linear(in_features=100, out_features=100, bias=True)
        (3): ReLU()
        (4): Linear(in_features=100, out_features=784, bias=True)
      )
    )
    (5): BatchNorm()
    (6): LinearMaskedCoupling(
      (s_net): Sequential(
        (0): Linear(in_features=784, out_features=100, bias=True)
        (1): Tanh()
        (2): Linear(in_features=100, out_features=100, bias=True)
        (3): Tanh()
        (4): Linear(in_features=100, out_features=784, bias=True)
      )
      (t_net): Sequential(
        (0): Linear(in_features=784, out_features=100, bias=True)
        (1): ReLU()
        (2): Linear(in_features=100, out_features=100, bias=True)
        (3): ReLU()
        (4): Linear(in_features=100, out_features=784, bias=True)
      )
    )
    (7): BatchNorm()
    (8): LinearMaskedCoupling(
      (s_net): Sequential(
        (0): Linear(in_features=784, out_features=100, bias=True)
        (1): Tanh()
        (2): Linear(in_features=100, out_features=100, bias=True)
        (3): Tanh()
        (4): Linear(in_features=100, out_features=784, bias=True)
      )
      (t_net): Sequential(
        (0): Linear(in_features=784, out_features=100, bias=True)
        (1): ReLU()
        (2): Linear(in_features=100, out_features=100, bias=True)
        (3): ReLU()
        (4): Linear(in_features=100, out_features=784, bias=True)
      )
    )
    (9): BatchNorm()
  )
)
Evaluate (epoch 0) -- logp(x) = -1412.367 +/- 1.620
Evaluate logp(x) = -1412.367 +/- 1.620
{'batch_size': 32,
 'cond_label_size': None,
 'conditional': False,
 'data_dir': './data/',
 'dataset': 'MNIST',
 'device': device(type='cpu'),
 'evaluate': True,
 'flip_toy_var_order': False,
 'generate': True,
 'hidden_size': 100,
 'input_dims': (1, 28, 28),
 'input_size': 784,
 'log_interval': 1000,
 'lr': 0.0001,
 'model': 'realnvp',
 'n_blocks': 5,
 'n_components': 1,
 'n_epochs': 2,
 'n_hidden': 1,
 'no_batch_norm': False,
 'no_cuda': False,
 'output_dir': './results/',
 'restore_file': None,
 'results_file': './results/results.txt',
 'seed': 1,
 'start_epoch': 0,
 'train': True}
RealNVP(
  (net): FlowSequential(
    (0): LinearMaskedCoupling(
      (s_net): Sequential(
        (0): Linear(in_features=784, out_features=100, bias=True)
        (1): Tanh()
        (2): Linear(in_features=100, out_features=100, bias=True)
        (3): Tanh()
        (4): Linear(in_features=100, out_features=784, bias=True)
      )
      (t_net): Sequential(
        (0): Linear(in_features=784, out_features=100, bias=True)
        (1): ReLU()
        (2): Linear(in_features=100, out_features=100, bias=True)
        (3): ReLU()
        (4): Linear(in_features=100, out_features=784, bias=True)
      )
    )
    (1): BatchNorm()
    (2): LinearMaskedCoupling(
      (s_net): Sequential(
        (0): Linear(in_features=784, out_features=100, bias=True)
        (1): Tanh()
        (2): Linear(in_features=100, out_features=100, bias=True)
        (3): Tanh()
        (4): Linear(in_features=100, out_features=784, bias=True)
      )
      (t_net): Sequential(
        (0): Linear(in_features=784, out_features=100, bias=True)
        (1): ReLU()
        (2): Linear(in_features=100, out_features=100, bias=True)
        (3): ReLU()
        (4): Linear(in_features=100, out_features=784, bias=True)
      )
    )
    (3): BatchNorm()
    (4): LinearMaskedCoupling(
      (s_net): Sequential(
        (0): Linear(in_features=784, out_features=100, bias=True)
        (1): Tanh()
        (2): Linear(in_features=100, out_features=100, bias=True)
        (3): Tanh()
        (4): Linear(in_features=100, out_features=784, bias=True)
      )
      (t_net): Sequential(
        (0): Linear(in_features=784, out_features=100, bias=True)
        (1): ReLU()
        (2): Linear(in_features=100, out_features=100, bias=True)
        (3): ReLU()
        (4): Linear(in_features=100, out_features=784, bias=True)
      )
    )
    (5): BatchNorm()
    (6): LinearMaskedCoupling(
      (s_net): Sequential(
        (0): Linear(in_features=784, out_features=100, bias=True)
        (1): Tanh()
        (2): Linear(in_features=100, out_features=100, bias=True)
        (3): Tanh()
        (4): Linear(in_features=100, out_features=784, bias=True)
      )
      (t_net): Sequential(
        (0): Linear(in_features=784, out_features=100, bias=True)
        (1): ReLU()
        (2): Linear(in_features=100, out_features=100, bias=True)
        (3): ReLU()
        (4): Linear(in_features=100, out_features=784, bias=True)
      )
    )
    (7): BatchNorm()
    (8): LinearMaskedCoupling(
      (s_net): Sequential(
        (0): Linear(in_features=784, out_features=100, bias=True)
        (1): Tanh()
        (2): Linear(in_features=100, out_features=100, bias=True)
        (3): Tanh()
        (4): Linear(in_features=100, out_features=784, bias=True)
      )
      (t_net): Sequential(
        (0): Linear(in_features=784, out_features=100, bias=True)
        (1): ReLU()
        (2): Linear(in_features=100, out_features=100, bias=True)
        (3): ReLU()
        (4): Linear(in_features=100, out_features=784, bias=True)
      )
    )
    (9): BatchNorm()
  )
)
Evaluate (epoch 0) -- logp(x) = -1412.367 +/- 1.620
Evaluate (epoch 1) -- logp(x) = -1382.816 +/- 1.512
Evaluate logp(x) = -1382.816 +/- 1.512
{'batch_size': 32,
 'cond_label_size': None,
 'data_dir': './data/',
 'dataset': 'MNIST',
 'device': device(type='cpu'),
 'evaluate': True,
 'flip_toy_var_order': False,
 'generate': True,
 'hidden_size': 100,
 'input_dims': (1, 28, 28),
 'input_size': 784,
 'log_interval': 1000,
 'lr': 0.0001,
 'model': 'realnvp',
 'n_blocks': 5,
 'n_components': 1,
 'n_epochs': 50,
 'n_hidden': 1,
 'no_batch_norm': False,
 'no_cuda': False,
 'output_dir': './results/',
 'restore_file': None,
 'results_file': './results/results.txt',
 'seed': 1,
 'start_epoch': 0,
 'train': True}
RealNVP(
  (net): FlowSequential(
    (0): LinearMaskedCoupling(
      (s_net): Sequential(
        (0): Linear(in_features=784, out_features=100, bias=True)
        (1): Tanh()
        (2): Linear(in_features=100, out_features=100, bias=True)
        (3): Tanh()
        (4): Linear(in_features=100, out_features=784, bias=True)
      )
      (t_net): Sequential(
        (0): Linear(in_features=784, out_features=100, bias=True)
        (1): ReLU()
        (2): Linear(in_features=100, out_features=100, bias=True)
        (3): ReLU()
        (4): Linear(in_features=100, out_features=784, bias=True)
      )
    )
    (1): BatchNorm()
    (2): LinearMaskedCoupling(
      (s_net): Sequential(
        (0): Linear(in_features=784, out_features=100, bias=True)
        (1): Tanh()
        (2): Linear(in_features=100, out_features=100, bias=True)
        (3): Tanh()
        (4): Linear(in_features=100, out_features=784, bias=True)
      )
      (t_net): Sequential(
        (0): Linear(in_features=784, out_features=100, bias=True)
        (1): ReLU()
        (2): Linear(in_features=100, out_features=100, bias=True)
        (3): ReLU()
        (4): Linear(in_features=100, out_features=784, bias=True)
      )
    )
    (3): BatchNorm()
    (4): LinearMaskedCoupling(
      (s_net): Sequential(
        (0): Linear(in_features=784, out_features=100, bias=True)
        (1): Tanh()
        (2): Linear(in_features=100, out_features=100, bias=True)
        (3): Tanh()
        (4): Linear(in_features=100, out_features=784, bias=True)
      )
      (t_net): Sequential(
        (0): Linear(in_features=784, out_features=100, bias=True)
        (1): ReLU()
        (2): Linear(in_features=100, out_features=100, bias=True)
        (3): ReLU()
        (4): Linear(in_features=100, out_features=784, bias=True)
      )
    )
    (5): BatchNorm()
    (6): LinearMaskedCoupling(
      (s_net): Sequential(
        (0): Linear(in_features=784, out_features=100, bias=True)
        (1): Tanh()
        (2): Linear(in_features=100, out_features=100, bias=True)
        (3): Tanh()
        (4): Linear(in_features=100, out_features=784, bias=True)
      )
      (t_net): Sequential(
        (0): Linear(in_features=784, out_features=100, bias=True)
        (1): ReLU()
        (2): Linear(in_features=100, out_features=100, bias=True)
        (3): ReLU()
        (4): Linear(in_features=100, out_features=784, bias=True)
      )
    )
    (7): BatchNorm()
    (8): LinearMaskedCoupling(
      (s_net): Sequential(
        (0): Linear(in_features=784, out_features=100, bias=True)
        (1): Tanh()
        (2): Linear(in_features=100, out_features=100, bias=True)
        (3): Tanh()
        (4): Linear(in_features=100, out_features=784, bias=True)
      )
      (t_net): Sequential(
        (0): Linear(in_features=784, out_features=100, bias=True)
        (1): ReLU()
        (2): Linear(in_features=100, out_features=100, bias=True)
        (3): ReLU()
        (4): Linear(in_features=100, out_features=784, bias=True)
      )
    )
    (9): BatchNorm()
  )
)
{'batch_size': 32,
 'cond_label_size': None,
 'data_dir': './data/',
 'dataset': 'MNIST',
 'device': device(type='cpu'),
 'evaluate': True,
 'flip_toy_var_order': False,
 'generate': True,
 'hidden_size': 100,
 'input_dims': (1, 28, 28),
 'input_size': 784,
 'log_interval': 1000,
 'lr': 0.0001,
 'model': 'realnvp',
 'n_blocks': 5,
 'n_components': 1,
 'n_epochs': 1,
 'n_hidden': 1,
 'no_batch_norm': False,
 'no_cuda': False,
 'output_dir': './results/',
 'restore_file': None,
 'results_file': './results/results.txt',
 'seed': 1,
 'start_epoch': 0,
 'train': True}
RealNVP(
  (net): FlowSequential(
    (0): LinearMaskedCoupling(
      (s_net): Sequential(
        (0): Linear(in_features=784, out_features=100, bias=True)
        (1): Tanh()
        (2): Linear(in_features=100, out_features=100, bias=True)
        (3): Tanh()
        (4): Linear(in_features=100, out_features=784, bias=True)
      )
      (t_net): Sequential(
        (0): Linear(in_features=784, out_features=100, bias=True)
        (1): ReLU()
        (2): Linear(in_features=100, out_features=100, bias=True)
        (3): ReLU()
        (4): Linear(in_features=100, out_features=784, bias=True)
      )
    )
    (1): BatchNorm()
    (2): LinearMaskedCoupling(
      (s_net): Sequential(
        (0): Linear(in_features=784, out_features=100, bias=True)
        (1): Tanh()
        (2): Linear(in_features=100, out_features=100, bias=True)
        (3): Tanh()
        (4): Linear(in_features=100, out_features=784, bias=True)
      )
      (t_net): Sequential(
        (0): Linear(in_features=784, out_features=100, bias=True)
        (1): ReLU()
        (2): Linear(in_features=100, out_features=100, bias=True)
        (3): ReLU()
        (4): Linear(in_features=100, out_features=784, bias=True)
      )
    )
    (3): BatchNorm()
    (4): LinearMaskedCoupling(
      (s_net): Sequential(
        (0): Linear(in_features=784, out_features=100, bias=True)
        (1): Tanh()
        (2): Linear(in_features=100, out_features=100, bias=True)
        (3): Tanh()
        (4): Linear(in_features=100, out_features=784, bias=True)
      )
      (t_net): Sequential(
        (0): Linear(in_features=784, out_features=100, bias=True)
        (1): ReLU()
        (2): Linear(in_features=100, out_features=100, bias=True)
        (3): ReLU()
        (4): Linear(in_features=100, out_features=784, bias=True)
      )
    )
    (5): BatchNorm()
    (6): LinearMaskedCoupling(
      (s_net): Sequential(
        (0): Linear(in_features=784, out_features=100, bias=True)
        (1): Tanh()
        (2): Linear(in_features=100, out_features=100, bias=True)
        (3): Tanh()
        (4): Linear(in_features=100, out_features=784, bias=True)
      )
      (t_net): Sequential(
        (0): Linear(in_features=784, out_features=100, bias=True)
        (1): ReLU()
        (2): Linear(in_features=100, out_features=100, bias=True)
        (3): ReLU()
        (4): Linear(in_features=100, out_features=784, bias=True)
      )
    )
    (7): BatchNorm()
    (8): LinearMaskedCoupling(
      (s_net): Sequential(
        (0): Linear(in_features=784, out_features=100, bias=True)
        (1): Tanh()
        (2): Linear(in_features=100, out_features=100, bias=True)
        (3): Tanh()
        (4): Linear(in_features=100, out_features=784, bias=True)
      )
      (t_net): Sequential(
        (0): Linear(in_features=784, out_features=100, bias=True)
        (1): ReLU()
        (2): Linear(in_features=100, out_features=100, bias=True)
        (3): ReLU()
        (4): Linear(in_features=100, out_features=784, bias=True)
      )
    )
    (9): BatchNorm()
  )
)
Evaluate (epoch 0) -- logp(x) = -1412.367 +/- 1.620
Evaluate logp(x) = -1412.367 +/- 1.620

RealNVP(
  (net): FlowSequential(
    (0): LinearMaskedCoupling(
      (s_net): Sequential(
        (0): Linear(in_features=784, out_features=100, bias=True)
        (1): Tanh()
        (2): Linear(in_features=100, out_features=100, bias=True)
        (3): Tanh()
        (4): Linear(in_features=100, out_features=784, bias=True)
      )
      (t_net): Sequential(
        (0): Linear(in_features=784, out_features=100, bias=True)
        (1): ReLU()
        (2): Linear(in_features=100, out_features=100, bias=True)
        (3): ReLU()
        (4): Linear(in_features=100, out_features=784, bias=True)
      )
    )
    (1): BatchNorm()
    (2): LinearMaskedCoupling(
      (s_net): Sequential(
        (0): Linear(in_features=784, out_features=100, bias=True)
        (1): Tanh()
        (2): Linear(in_features=100, out_features=100, bias=True)
        (3): Tanh()
        (4): Linear(in_features=100, out_features=784, bias=True)
      )
      (t_net): Sequential(
        (0): Linear(in_features=784, out_features=100, bias=True)
        (1): ReLU()
        (2): Linear(in_features=100, out_features=100, bias=True)
        (3): ReLU()
        (4): Linear(in_features=100, out_features=784, bias=True)
      )
    )
    (3): BatchNorm()
    (4): LinearMaskedCoupling(
      (s_net): Sequential(
        (0): Linear(in_features=784, out_features=100, bias=True)
        (1): Tanh()
        (2): Linear(in_features=100, out_features=100, bias=True)
        (3): Tanh()
        (4): Linear(in_features=100, out_features=784, bias=True)
      )
      (t_net): Sequential(
        (0): Linear(in_features=784, out_features=100, bias=True)
        (1): ReLU()
        (2): Linear(in_features=100, out_features=100, bias=True)
        (3): ReLU()
        (4): Linear(in_features=100, out_features=784, bias=True)
      )
    )
    (5): BatchNorm()
    (6): LinearMaskedCoupling(
      (s_net): Sequential(
        (0): Linear(in_features=784, out_features=100, bias=True)
        (1): Tanh()
        (2): Linear(in_features=100, out_features=100, bias=True)
        (3): Tanh()
        (4): Linear(in_features=100, out_features=784, bias=True)
      )
      (t_net): Sequential(
        (0): Linear(in_features=784, out_features=100, bias=True)
        (1): ReLU()
        (2): Linear(in_features=100, out_features=100, bias=True)
        (3): ReLU()
        (4): Linear(in_features=100, out_features=784, bias=True)
      )
    )
    (7): BatchNorm()
    (8): LinearMaskedCoupling(
      (s_net): Sequential(
        (0): Linear(in_features=784, out_features=100, bias=True)
        (1): Tanh()
        (2): Linear(in_features=100, out_features=100, bias=True)
        (3): Tanh()
        (4): Linear(in_features=100, out_features=784, bias=True)
      )
      (t_net): Sequential(
        (0): Linear(in_features=784, out_features=100, bias=True)
        (1): ReLU()
        (2): Linear(in_features=100, out_features=100, bias=True)
        (3): ReLU()
        (4): Linear(in_features=100, out_features=784, bias=True)
      )
    )
    (9): BatchNorm()
  )
)
Evaluate (epoch 0) -- logp(x) = -1411.844 +/- 1.609
Evaluate (epoch 1) -- logp(x) = -1382.885 +/- 1.508
Evaluate (epoch 2) -- logp(x) = -1368.333 +/- 1.479
Evaluate (epoch 3) -- logp(x) = -1358.792 +/- 1.454
Evaluate (epoch 4) -- logp(x) = -1351.161 +/- 1.454
Evaluate (epoch 5) -- logp(x) = -1345.864 +/- 1.430
Evaluate (epoch 6) -- logp(x) = -1340.709 +/- 1.433
Evaluate (epoch 7) -- logp(x) = -1337.685 +/- 1.438
Evaluate (epoch 8) -- logp(x) = -1334.303 +/- 1.430
Evaluate (epoch 9) -- logp(x) = -1331.307 +/- 1.432
Evaluate (epoch 10) -- logp(x) = -1329.118 +/- 1.434
Evaluate (epoch 11) -- logp(x) = -1327.013 +/- 1.436
Evaluate (epoch 12) -- logp(x) = -1324.659 +/- 1.441
Evaluate (epoch 13) -- logp(x) = -1322.254 +/- 1.428
Evaluate (epoch 14) -- logp(x) = -1321.055 +/- 1.446
Evaluate (epoch 15) -- logp(x) = -1319.532 +/- 1.444
Evaluate (epoch 16) -- logp(x) = -1318.688 +/- 1.441
Evaluate (epoch 17) -- logp(x) = -1315.956 +/- 1.462
Evaluate (epoch 18) -- logp(x) = -1315.327 +/- 1.426
Evaluate (epoch 19) -- logp(x) = -1313.589 +/- 1.456
Evaluate (epoch 20) -- logp(x) = -1312.249 +/- 1.446
Evaluate (epoch 21) -- logp(x) = -1311.160 +/- 1.444
Evaluate (epoch 22) -- logp(x) = -1309.542 +/- 1.477
Evaluate (epoch 23) -- logp(x) = -1309.432 +/- 1.474
Evaluate (epoch 24) -- logp(x) = -1307.398 +/- 1.465
Evaluate (epoch 25) -- logp(x) = -1306.121 +/- 1.458
Evaluate (epoch 26) -- logp(x) = -1305.334 +/- 1.478
Evaluate (epoch 27) -- logp(x) = -1304.724 +/- 1.492
Evaluate (epoch 28) -- logp(x) = -1303.906 +/- 1.471
Evaluate (epoch 29) -- logp(x) = -1302.386 +/- 1.476
Evaluate (epoch 30) -- logp(x) = -1301.646 +/- 1.471
Evaluate (epoch 31) -- logp(x) = -1300.542 +/- 1.492
Evaluate (epoch 32) -- logp(x) = -1299.857 +/- 1.505
Evaluate (epoch 33) -- logp(x) = -1298.531 +/- 1.505
Evaluate (epoch 34) -- logp(x) = -1298.080 +/- 1.500
Evaluate (epoch 35) -- logp(x) = -1298.096 +/- 1.507
Evaluate (epoch 36) -- logp(x) = -1296.863 +/- 1.502
Evaluate (epoch 37) -- logp(x) = -1295.652 +/- 1.505
Evaluate (epoch 38) -- logp(x) = -1294.386 +/- 1.531
Evaluate (epoch 39) -- logp(x) = -1295.029 +/- 1.529
Evaluate (epoch 40) -- logp(x) = -1294.598 +/- 1.516
Evaluate (epoch 41) -- logp(x) = -1293.793 +/- 1.510
Evaluate (epoch 42) -- logp(x) = -1292.668 +/- 1.534
Evaluate (epoch 43) -- logp(x) = -1292.588 +/- 1.538
Evaluate (epoch 44) -- logp(x) = -1290.994 +/- 1.536
Evaluate (epoch 45) -- logp(x) = -1291.067 +/- 1.533
Evaluate (epoch 46) -- logp(x) = -1290.640 +/- 1.540
Evaluate (epoch 47) -- logp(x) = -1289.833 +/- 1.550
Evaluate (epoch 48) -- logp(x) = -1289.464 +/- 1.519
Evaluate (epoch 49) -- logp(x) = -1287.883 +/- 1.545
Evaluate logp(x) = -1287.883 +/- 1.545

RealNVP(
  (net): FlowSequential(
    (0): LinearMaskedCoupling(
      (s_net): Sequential(
        (0): Linear(in_features=784, out_features=100, bias=True)
        (1): Tanh()
        (2): Linear(in_features=100, out_features=100, bias=True)
        (3): Tanh()
        (4): Linear(in_features=100, out_features=784, bias=True)
      )
      (t_net): Sequential(
        (0): Linear(in_features=784, out_features=100, bias=True)
        (1): ReLU()
        (2): Linear(in_features=100, out_features=100, bias=True)
        (3): ReLU()
        (4): Linear(in_features=100, out_features=784, bias=True)
      )
    )
    (1): BatchNorm()
    (2): LinearMaskedCoupling(
      (s_net): Sequential(
        (0): Linear(in_features=784, out_features=100, bias=True)
        (1): Tanh()
        (2): Linear(in_features=100, out_features=100, bias=True)
        (3): Tanh()
        (4): Linear(in_features=100, out_features=784, bias=True)
      )
      (t_net): Sequential(
        (0): Linear(in_features=784, out_features=100, bias=True)
        (1): ReLU()
        (2): Linear(in_features=100, out_features=100, bias=True)
        (3): ReLU()
        (4): Linear(in_features=100, out_features=784, bias=True)
      )
    )
    (3): BatchNorm()
    (4): LinearMaskedCoupling(
      (s_net): Sequential(
        (0): Linear(in_features=784, out_features=100, bias=True)
        (1): Tanh()
        (2): Linear(in_features=100, out_features=100, bias=True)
        (3): Tanh()
        (4): Linear(in_features=100, out_features=784, bias=True)
      )
      (t_net): Sequential(
        (0): Linear(in_features=784, out_features=100, bias=True)
        (1): ReLU()
        (2): Linear(in_features=100, out_features=100, bias=True)
        (3): ReLU()
        (4): Linear(in_features=100, out_features=784, bias=True)
      )
    )
    (5): BatchNorm()
    (6): LinearMaskedCoupling(
      (s_net): Sequential(
        (0): Linear(in_features=784, out_features=100, bias=True)
        (1): Tanh()
        (2): Linear(in_features=100, out_features=100, bias=True)
        (3): Tanh()
        (4): Linear(in_features=100, out_features=784, bias=True)
      )
      (t_net): Sequential(
        (0): Linear(in_features=784, out_features=100, bias=True)
        (1): ReLU()
        (2): Linear(in_features=100, out_features=100, bias=True)
        (3): ReLU()
        (4): Linear(in_features=100, out_features=784, bias=True)
      )
    )
    (7): BatchNorm()
    (8): LinearMaskedCoupling(
      (s_net): Sequential(
        (0): Linear(in_features=784, out_features=100, bias=True)
        (1): Tanh()
        (2): Linear(in_features=100, out_features=100, bias=True)
        (3): Tanh()
        (4): Linear(in_features=100, out_features=784, bias=True)
      )
      (t_net): Sequential(
        (0): Linear(in_features=784, out_features=100, bias=True)
        (1): ReLU()
        (2): Linear(in_features=100, out_features=100, bias=True)
        (3): ReLU()
        (4): Linear(in_features=100, out_features=784, bias=True)
      )
    )
    (9): BatchNorm()
  )
)

RealNVP(
  (net): FlowSequential(
    (0): LinearMaskedCoupling(
      (s_net): Sequential(
        (0): Linear(in_features=784, out_features=100, bias=True)
        (1): Tanh()
        (2): Linear(in_features=100, out_features=100, bias=True)
        (3): Tanh()
        (4): Linear(in_features=100, out_features=784, bias=True)
      )
      (t_net): Sequential(
        (0): Linear(in_features=784, out_features=100, bias=True)
        (1): ReLU()
        (2): Linear(in_features=100, out_features=100, bias=True)
        (3): ReLU()
        (4): Linear(in_features=100, out_features=784, bias=True)
      )
    )
    (1): BatchNorm()
    (2): LinearMaskedCoupling(
      (s_net): Sequential(
        (0): Linear(in_features=784, out_features=100, bias=True)
        (1): Tanh()
        (2): Linear(in_features=100, out_features=100, bias=True)
        (3): Tanh()
        (4): Linear(in_features=100, out_features=784, bias=True)
      )
      (t_net): Sequential(
        (0): Linear(in_features=784, out_features=100, bias=True)
        (1): ReLU()
        (2): Linear(in_features=100, out_features=100, bias=True)
        (3): ReLU()
        (4): Linear(in_features=100, out_features=784, bias=True)
      )
    )
    (3): BatchNorm()
    (4): LinearMaskedCoupling(
      (s_net): Sequential(
        (0): Linear(in_features=784, out_features=100, bias=True)
        (1): Tanh()
        (2): Linear(in_features=100, out_features=100, bias=True)
        (3): Tanh()
        (4): Linear(in_features=100, out_features=784, bias=True)
      )
      (t_net): Sequential(
        (0): Linear(in_features=784, out_features=100, bias=True)
        (1): ReLU()
        (2): Linear(in_features=100, out_features=100, bias=True)
        (3): ReLU()
        (4): Linear(in_features=100, out_features=784, bias=True)
      )
    )
    (5): BatchNorm()
    (6): LinearMaskedCoupling(
      (s_net): Sequential(
        (0): Linear(in_features=784, out_features=100, bias=True)
        (1): Tanh()
        (2): Linear(in_features=100, out_features=100, bias=True)
        (3): Tanh()
        (4): Linear(in_features=100, out_features=784, bias=True)
      )
      (t_net): Sequential(
        (0): Linear(in_features=784, out_features=100, bias=True)
        (1): ReLU()
        (2): Linear(in_features=100, out_features=100, bias=True)
        (3): ReLU()
        (4): Linear(in_features=100, out_features=784, bias=True)
      )
    )
    (7): BatchNorm()
    (8): LinearMaskedCoupling(
      (s_net): Sequential(
        (0): Linear(in_features=784, out_features=100, bias=True)
        (1): Tanh()
        (2): Linear(in_features=100, out_features=100, bias=True)
        (3): Tanh()
        (4): Linear(in_features=100, out_features=784, bias=True)
      )
      (t_net): Sequential(
        (0): Linear(in_features=784, out_features=100, bias=True)
        (1): ReLU()
        (2): Linear(in_features=100, out_features=100, bias=True)
        (3): ReLU()
        (4): Linear(in_features=100, out_features=784, bias=True)
      )
    )
    (9): BatchNorm()
  )
)
Evaluate (epoch 0) -- logp(x) = -1411.844 +/- 1.609
Evaluate (epoch 1) -- logp(x) = -1382.885 +/- 1.508
Evaluate (epoch 2) -- logp(x) = -1368.333 +/- 1.479
Evaluate (epoch 3) -- logp(x) = -1358.792 +/- 1.454
Evaluate logp(x) = -1358.792 +/- 1.454

RealNVP(
  (net): FlowSequential(
    (0): LinearMaskedCoupling(
      (s_net): Sequential(
        (0): Linear(in_features=784, out_features=100, bias=True)
        (1): Tanh()
        (2): Linear(in_features=100, out_features=100, bias=True)
        (3): Tanh()
        (4): Linear(in_features=100, out_features=784, bias=True)
      )
      (t_net): Sequential(
        (0): Linear(in_features=784, out_features=100, bias=True)
        (1): ReLU()
        (2): Linear(in_features=100, out_features=100, bias=True)
        (3): ReLU()
        (4): Linear(in_features=100, out_features=784, bias=True)
      )
    )
    (1): BatchNorm()
    (2): LinearMaskedCoupling(
      (s_net): Sequential(
        (0): Linear(in_features=784, out_features=100, bias=True)
        (1): Tanh()
        (2): Linear(in_features=100, out_features=100, bias=True)
        (3): Tanh()
        (4): Linear(in_features=100, out_features=784, bias=True)
      )
      (t_net): Sequential(
        (0): Linear(in_features=784, out_features=100, bias=True)
        (1): ReLU()
        (2): Linear(in_features=100, out_features=100, bias=True)
        (3): ReLU()
        (4): Linear(in_features=100, out_features=784, bias=True)
      )
    )
    (3): BatchNorm()
    (4): LinearMaskedCoupling(
      (s_net): Sequential(
        (0): Linear(in_features=784, out_features=100, bias=True)
        (1): Tanh()
        (2): Linear(in_features=100, out_features=100, bias=True)
        (3): Tanh()
        (4): Linear(in_features=100, out_features=784, bias=True)
      )
      (t_net): Sequential(
        (0): Linear(in_features=784, out_features=100, bias=True)
        (1): ReLU()
        (2): Linear(in_features=100, out_features=100, bias=True)
        (3): ReLU()
        (4): Linear(in_features=100, out_features=784, bias=True)
      )
    )
    (5): BatchNorm()
    (6): LinearMaskedCoupling(
      (s_net): Sequential(
        (0): Linear(in_features=784, out_features=100, bias=True)
        (1): Tanh()
        (2): Linear(in_features=100, out_features=100, bias=True)
        (3): Tanh()
        (4): Linear(in_features=100, out_features=784, bias=True)
      )
      (t_net): Sequential(
        (0): Linear(in_features=784, out_features=100, bias=True)
        (1): ReLU()
        (2): Linear(in_features=100, out_features=100, bias=True)
        (3): ReLU()
        (4): Linear(in_features=100, out_features=784, bias=True)
      )
    )
    (7): BatchNorm()
    (8): LinearMaskedCoupling(
      (s_net): Sequential(
        (0): Linear(in_features=784, out_features=100, bias=True)
        (1): Tanh()
        (2): Linear(in_features=100, out_features=100, bias=True)
        (3): Tanh()
        (4): Linear(in_features=100, out_features=784, bias=True)
      )
      (t_net): Sequential(
        (0): Linear(in_features=784, out_features=100, bias=True)
        (1): ReLU()
        (2): Linear(in_features=100, out_features=100, bias=True)
        (3): ReLU()
        (4): Linear(in_features=100, out_features=784, bias=True)
      )
    )
    (9): BatchNorm()
  )
)
Evaluate (epoch 0) -- logp(x) = -1411.844 +/- 1.609
Evaluate (epoch 1) -- logp(x) = -1382.885 +/- 1.508
Evaluate logp(x) = -1382.885 +/- 1.508
Evaluate (epoch 0) -- logp(x) = -640.737 +/- 7.981
Evaluate (epoch 1) -- logp(x) = -636.929 +/- 7.973
Evaluate (epoch 0) -- logp(x) = -633.790 +/- 7.970
Evaluate (epoch 1) -- logp(x) = -632.679 +/- 7.966

RealNVP(
  (net): FlowSequential(
    (0): LinearMaskedCoupling(
      (s_net): Sequential(
        (0): Linear(in_features=784, out_features=100, bias=True)
        (1): Tanh()
        (2): Linear(in_features=100, out_features=100, bias=True)
        (3): Tanh()
        (4): Linear(in_features=100, out_features=784, bias=True)
      )
      (t_net): Sequential(
        (0): Linear(in_features=784, out_features=100, bias=True)
        (1): ReLU()
        (2): Linear(in_features=100, out_features=100, bias=True)
        (3): ReLU()
        (4): Linear(in_features=100, out_features=784, bias=True)
      )
    )
    (1): BatchNorm()
    (2): LinearMaskedCoupling(
      (s_net): Sequential(
        (0): Linear(in_features=784, out_features=100, bias=True)
        (1): Tanh()
        (2): Linear(in_features=100, out_features=100, bias=True)
        (3): Tanh()
        (4): Linear(in_features=100, out_features=784, bias=True)
      )
      (t_net): Sequential(
        (0): Linear(in_features=784, out_features=100, bias=True)
        (1): ReLU()
        (2): Linear(in_features=100, out_features=100, bias=True)
        (3): ReLU()
        (4): Linear(in_features=100, out_features=784, bias=True)
      )
    )
    (3): BatchNorm()
    (4): LinearMaskedCoupling(
      (s_net): Sequential(
        (0): Linear(in_features=784, out_features=100, bias=True)
        (1): Tanh()
        (2): Linear(in_features=100, out_features=100, bias=True)
        (3): Tanh()
        (4): Linear(in_features=100, out_features=784, bias=True)
      )
      (t_net): Sequential(
        (0): Linear(in_features=784, out_features=100, bias=True)
        (1): ReLU()
        (2): Linear(in_features=100, out_features=100, bias=True)
        (3): ReLU()
        (4): Linear(in_features=100, out_features=784, bias=True)
      )
    )
    (5): BatchNorm()
    (6): LinearMaskedCoupling(
      (s_net): Sequential(
        (0): Linear(in_features=784, out_features=100, bias=True)
        (1): Tanh()
        (2): Linear(in_features=100, out_features=100, bias=True)
        (3): Tanh()
        (4): Linear(in_features=100, out_features=784, bias=True)
      )
      (t_net): Sequential(
        (0): Linear(in_features=784, out_features=100, bias=True)
        (1): ReLU()
        (2): Linear(in_features=100, out_features=100, bias=True)
        (3): ReLU()
        (4): Linear(in_features=100, out_features=784, bias=True)
      )
    )
    (7): BatchNorm()
    (8): LinearMaskedCoupling(
      (s_net): Sequential(
        (0): Linear(in_features=784, out_features=100, bias=True)
        (1): Tanh()
        (2): Linear(in_features=100, out_features=100, bias=True)
        (3): Tanh()
        (4): Linear(in_features=100, out_features=784, bias=True)
      )
      (t_net): Sequential(
        (0): Linear(in_features=784, out_features=100, bias=True)
        (1): ReLU()
        (2): Linear(in_features=100, out_features=100, bias=True)
        (3): ReLU()
        (4): Linear(in_features=100, out_features=784, bias=True)
      )
    )
    (9): BatchNorm()
  )
)
Evaluate (epoch 0) -- logp(x) = -1411.844 +/- 1.609
Evaluate (epoch 1) -- logp(x) = -1382.885 +/- 1.508
Evaluate logp(x) = -1382.885 +/- 1.508
Evaluate (epoch 0) -- logp(x) = -640.372 +/- 7.989
Evaluate (epoch 1) -- logp(x) = -636.508 +/- 7.983
Evaluate (epoch 0) -- logp(x) = -636.563 +/- 7.930
Evaluate (epoch 1) -- logp(x) = -634.024 +/- 7.970
Evaluate logp(x) = -9586.838 +/- 9.071
Evaluate (epoch 0) -- logp(x) = -632.345 +/- 7.966

RealNVP(
  (net): FlowSequential(
    (0): LinearMaskedCoupling(
      (s_net): Sequential(
        (0): Linear(in_features=784, out_features=100, bias=True)
        (1): Tanh()
        (2): Linear(in_features=100, out_features=100, bias=True)
        (3): Tanh()
        (4): Linear(in_features=100, out_features=784, bias=True)
      )
      (t_net): Sequential(
        (0): Linear(in_features=784, out_features=100, bias=True)
        (1): ReLU()
        (2): Linear(in_features=100, out_features=100, bias=True)
        (3): ReLU()
        (4): Linear(in_features=100, out_features=784, bias=True)
      )
    )
    (1): BatchNorm()
    (2): LinearMaskedCoupling(
      (s_net): Sequential(
        (0): Linear(in_features=784, out_features=100, bias=True)
        (1): Tanh()
        (2): Linear(in_features=100, out_features=100, bias=True)
        (3): Tanh()
        (4): Linear(in_features=100, out_features=784, bias=True)
      )
      (t_net): Sequential(
        (0): Linear(in_features=784, out_features=100, bias=True)
        (1): ReLU()
        (2): Linear(in_features=100, out_features=100, bias=True)
        (3): ReLU()
        (4): Linear(in_features=100, out_features=784, bias=True)
      )
    )
    (3): BatchNorm()
    (4): LinearMaskedCoupling(
      (s_net): Sequential(
        (0): Linear(in_features=784, out_features=100, bias=True)
        (1): Tanh()
        (2): Linear(in_features=100, out_features=100, bias=True)
        (3): Tanh()
        (4): Linear(in_features=100, out_features=784, bias=True)
      )
      (t_net): Sequential(
        (0): Linear(in_features=784, out_features=100, bias=True)
        (1): ReLU()
        (2): Linear(in_features=100, out_features=100, bias=True)
        (3): ReLU()
        (4): Linear(in_features=100, out_features=784, bias=True)
      )
    )
    (5): BatchNorm()
    (6): LinearMaskedCoupling(
      (s_net): Sequential(
        (0): Linear(in_features=784, out_features=100, bias=True)
        (1): Tanh()
        (2): Linear(in_features=100, out_features=100, bias=True)
        (3): Tanh()
        (4): Linear(in_features=100, out_features=784, bias=True)
      )
      (t_net): Sequential(
        (0): Linear(in_features=784, out_features=100, bias=True)
        (1): ReLU()
        (2): Linear(in_features=100, out_features=100, bias=True)
        (3): ReLU()
        (4): Linear(in_features=100, out_features=784, bias=True)
      )
    )
    (7): BatchNorm()
    (8): LinearMaskedCoupling(
      (s_net): Sequential(
        (0): Linear(in_features=784, out_features=100, bias=True)
        (1): Tanh()
        (2): Linear(in_features=100, out_features=100, bias=True)
        (3): Tanh()
        (4): Linear(in_features=100, out_features=784, bias=True)
      )
      (t_net): Sequential(
        (0): Linear(in_features=784, out_features=100, bias=True)
        (1): ReLU()
        (2): Linear(in_features=100, out_features=100, bias=True)
        (3): ReLU()
        (4): Linear(in_features=100, out_features=784, bias=True)
      )
    )
    (9): BatchNorm()
  )
)
Evaluate (epoch 0) -- logp(x) = -1411.844 +/- 1.609
Evaluate (epoch 1) -- logp(x) = -632.672 +/- 7.965
Evaluate logp(x) = -11481.299 +/- 13.337

RealNVP(
  (net): FlowSequential(
    (0): LinearMaskedCoupling(
      (s_net): Sequential(
        (0): Linear(in_features=784, out_features=100, bias=True)
        (1): Tanh()
        (2): Linear(in_features=100, out_features=100, bias=True)
        (3): Tanh()
        (4): Linear(in_features=100, out_features=784, bias=True)
      )
      (t_net): Sequential(
        (0): Linear(in_features=784, out_features=100, bias=True)
        (1): ReLU()
        (2): Linear(in_features=100, out_features=100, bias=True)
        (3): ReLU()
        (4): Linear(in_features=100, out_features=784, bias=True)
      )
    )
    (1): BatchNorm()
    (2): LinearMaskedCoupling(
      (s_net): Sequential(
        (0): Linear(in_features=784, out_features=100, bias=True)
        (1): Tanh()
        (2): Linear(in_features=100, out_features=100, bias=True)
        (3): Tanh()
        (4): Linear(in_features=100, out_features=784, bias=True)
      )
      (t_net): Sequential(
        (0): Linear(in_features=784, out_features=100, bias=True)
        (1): ReLU()
        (2): Linear(in_features=100, out_features=100, bias=True)
        (3): ReLU()
        (4): Linear(in_features=100, out_features=784, bias=True)
      )
    )
    (3): BatchNorm()
    (4): LinearMaskedCoupling(
      (s_net): Sequential(
        (0): Linear(in_features=784, out_features=100, bias=True)
        (1): Tanh()
        (2): Linear(in_features=100, out_features=100, bias=True)
        (3): Tanh()
        (4): Linear(in_features=100, out_features=784, bias=True)
      )
      (t_net): Sequential(
        (0): Linear(in_features=784, out_features=100, bias=True)
        (1): ReLU()
        (2): Linear(in_features=100, out_features=100, bias=True)
        (3): ReLU()
        (4): Linear(in_features=100, out_features=784, bias=True)
      )
    )
    (5): BatchNorm()
    (6): LinearMaskedCoupling(
      (s_net): Sequential(
        (0): Linear(in_features=784, out_features=100, bias=True)
        (1): Tanh()
        (2): Linear(in_features=100, out_features=100, bias=True)
        (3): Tanh()
        (4): Linear(in_features=100, out_features=784, bias=True)
      )
      (t_net): Sequential(
        (0): Linear(in_features=784, out_features=100, bias=True)
        (1): ReLU()
        (2): Linear(in_features=100, out_features=100, bias=True)
        (3): ReLU()
        (4): Linear(in_features=100, out_features=784, bias=True)
      )
    )
    (7): BatchNorm()
    (8): LinearMaskedCoupling(
      (s_net): Sequential(
        (0): Linear(in_features=784, out_features=100, bias=True)
        (1): Tanh()
        (2): Linear(in_features=100, out_features=100, bias=True)
        (3): Tanh()
        (4): Linear(in_features=100, out_features=784, bias=True)
      )
      (t_net): Sequential(
        (0): Linear(in_features=784, out_features=100, bias=True)
        (1): ReLU()
        (2): Linear(in_features=100, out_features=100, bias=True)
        (3): ReLU()
        (4): Linear(in_features=100, out_features=784, bias=True)
      )
    )
    (9): BatchNorm()
  )
)
Evaluate (epoch 1) -- logp(x) = -1382.885 +/- 1.508
Evaluate logp(x) = -1382.885 +/- 1.508
Evaluate (epoch 0) -- logp(x) = -1411.844 +/- 1.609
Evaluate (epoch 1) -- logp(x) = -1382.885 +/- 1.508
Evaluate logp(x) = -1382.885 +/- 1.508

RealNVP(
  (net): FlowSequential(
    (0): LinearMaskedCoupling(
      (s_net): Sequential(
        (0): Linear(in_features=784, out_features=100, bias=True)
        (1): Tanh()
        (2): Linear(in_features=100, out_features=100, bias=True)
        (3): Tanh()
        (4): Linear(in_features=100, out_features=784, bias=True)
      )
      (t_net): Sequential(
        (0): Linear(in_features=784, out_features=100, bias=True)
        (1): ReLU()
        (2): Linear(in_features=100, out_features=100, bias=True)
        (3): ReLU()
        (4): Linear(in_features=100, out_features=784, bias=True)
      )
    )
    (1): BatchNorm()
    (2): LinearMaskedCoupling(
      (s_net): Sequential(
        (0): Linear(in_features=784, out_features=100, bias=True)
        (1): Tanh()
        (2): Linear(in_features=100, out_features=100, bias=True)
        (3): Tanh()
        (4): Linear(in_features=100, out_features=784, bias=True)
      )
      (t_net): Sequential(
        (0): Linear(in_features=784, out_features=100, bias=True)
        (1): ReLU()
        (2): Linear(in_features=100, out_features=100, bias=True)
        (3): ReLU()
        (4): Linear(in_features=100, out_features=784, bias=True)
      )
    )
    (3): BatchNorm()
    (4): LinearMaskedCoupling(
      (s_net): Sequential(
        (0): Linear(in_features=784, out_features=100, bias=True)
        (1): Tanh()
        (2): Linear(in_features=100, out_features=100, bias=True)
        (3): Tanh()
        (4): Linear(in_features=100, out_features=784, bias=True)
      )
      (t_net): Sequential(
        (0): Linear(in_features=784, out_features=100, bias=True)
        (1): ReLU()
        (2): Linear(in_features=100, out_features=100, bias=True)
        (3): ReLU()
        (4): Linear(in_features=100, out_features=784, bias=True)
      )
    )
    (5): BatchNorm()
    (6): LinearMaskedCoupling(
      (s_net): Sequential(
        (0): Linear(in_features=784, out_features=100, bias=True)
        (1): Tanh()
        (2): Linear(in_features=100, out_features=100, bias=True)
        (3): Tanh()
        (4): Linear(in_features=100, out_features=784, bias=True)
      )
      (t_net): Sequential(
        (0): Linear(in_features=784, out_features=100, bias=True)
        (1): ReLU()
        (2): Linear(in_features=100, out_features=100, bias=True)
        (3): ReLU()
        (4): Linear(in_features=100, out_features=784, bias=True)
      )
    )
    (7): BatchNorm()
    (8): LinearMaskedCoupling(
      (s_net): Sequential(
        (0): Linear(in_features=784, out_features=100, bias=True)
        (1): Tanh()
        (2): Linear(in_features=100, out_features=100, bias=True)
        (3): Tanh()
        (4): Linear(in_features=100, out_features=784, bias=True)
      )
      (t_net): Sequential(
        (0): Linear(in_features=784, out_features=100, bias=True)
        (1): ReLU()
        (2): Linear(in_features=100, out_features=100, bias=True)
        (3): ReLU()
        (4): Linear(in_features=100, out_features=784, bias=True)
      )
    )
    (9): BatchNorm()
  )
)
Evaluate (epoch 0) -- logp(x) = -640.003 +/- 7.986
Evaluate (epoch 1) -- logp(x) = -637.030 +/- 7.968
Evaluate (epoch 0) -- logp(x) = -634.056 +/- 7.965
Evaluate (epoch 1) -- logp(x) = -632.402 +/- 7.970
Evaluate logp(x) = -10265.017 +/- 8.390

RealNVP(
  (net): FlowSequential(
    (0): LinearMaskedCoupling(
      (s_net): Sequential(
        (0): Linear(in_features=784, out_features=100, bias=True)
        (1): Tanh()
        (2): Linear(in_features=100, out_features=100, bias=True)
        (3): Tanh()
        (4): Linear(in_features=100, out_features=784, bias=True)
      )
      (t_net): Sequential(
        (0): Linear(in_features=784, out_features=100, bias=True)
        (1): ReLU()
        (2): Linear(in_features=100, out_features=100, bias=True)
        (3): ReLU()
        (4): Linear(in_features=100, out_features=784, bias=True)
      )
    )
    (1): BatchNorm()
    (2): LinearMaskedCoupling(
      (s_net): Sequential(
        (0): Linear(in_features=784, out_features=100, bias=True)
        (1): Tanh()
        (2): Linear(in_features=100, out_features=100, bias=True)
        (3): Tanh()
        (4): Linear(in_features=100, out_features=784, bias=True)
      )
      (t_net): Sequential(
        (0): Linear(in_features=784, out_features=100, bias=True)
        (1): ReLU()
        (2): Linear(in_features=100, out_features=100, bias=True)
        (3): ReLU()
        (4): Linear(in_features=100, out_features=784, bias=True)
      )
    )
    (3): BatchNorm()
    (4): LinearMaskedCoupling(
      (s_net): Sequential(
        (0): Linear(in_features=784, out_features=100, bias=True)
        (1): Tanh()
        (2): Linear(in_features=100, out_features=100, bias=True)
        (3): Tanh()
        (4): Linear(in_features=100, out_features=784, bias=True)
      )
      (t_net): Sequential(
        (0): Linear(in_features=784, out_features=100, bias=True)
        (1): ReLU()
        (2): Linear(in_features=100, out_features=100, bias=True)
        (3): ReLU()
        (4): Linear(in_features=100, out_features=784, bias=True)
      )
    )
    (5): BatchNorm()
    (6): LinearMaskedCoupling(
      (s_net): Sequential(
        (0): Linear(in_features=784, out_features=100, bias=True)
        (1): Tanh()
        (2): Linear(in_features=100, out_features=100, bias=True)
        (3): Tanh()
        (4): Linear(in_features=100, out_features=784, bias=True)
      )
      (t_net): Sequential(
        (0): Linear(in_features=784, out_features=100, bias=True)
        (1): ReLU()
        (2): Linear(in_features=100, out_features=100, bias=True)
        (3): ReLU()
        (4): Linear(in_features=100, out_features=784, bias=True)
      )
    )
    (7): BatchNorm()
    (8): LinearMaskedCoupling(
      (s_net): Sequential(
        (0): Linear(in_features=784, out_features=100, bias=True)
        (1): Tanh()
        (2): Linear(in_features=100, out_features=100, bias=True)
        (3): Tanh()
        (4): Linear(in_features=100, out_features=784, bias=True)
      )
      (t_net): Sequential(
        (0): Linear(in_features=784, out_features=100, bias=True)
        (1): ReLU()
        (2): Linear(in_features=100, out_features=100, bias=True)
        (3): ReLU()
        (4): Linear(in_features=100, out_features=784, bias=True)
      )
    )
    (9): BatchNorm()
  )
)
Evaluate (epoch 0) -- logp(x) = -1411.844 +/- 1.609
Evaluate (epoch 1) -- logp(x) = -1382.885 +/- 1.508
Evaluate logp(x) = -1382.885 +/- 1.508
Evaluate (epoch 0) -- logp(x) = -640.013 +/- 7.977
Evaluate (epoch 1) -- logp(x) = -637.394 +/- 7.946
Evaluate logp(x) = -8418.830 +/- 6.634

RealNVP(
  (net): FlowSequential(
    (0): LinearMaskedCoupling(
      (s_net): Sequential(
        (0): Linear(in_features=784, out_features=100, bias=True)
        (1): Tanh()
        (2): Linear(in_features=100, out_features=100, bias=True)
        (3): Tanh()
        (4): Linear(in_features=100, out_features=784, bias=True)
      )
      (t_net): Sequential(
        (0): Linear(in_features=784, out_features=100, bias=True)
        (1): ReLU()
        (2): Linear(in_features=100, out_features=100, bias=True)
        (3): ReLU()
        (4): Linear(in_features=100, out_features=784, bias=True)
      )
    )
    (1): BatchNorm()
    (2): LinearMaskedCoupling(
      (s_net): Sequential(
        (0): Linear(in_features=784, out_features=100, bias=True)
        (1): Tanh()
        (2): Linear(in_features=100, out_features=100, bias=True)
        (3): Tanh()
        (4): Linear(in_features=100, out_features=784, bias=True)
      )
      (t_net): Sequential(
        (0): Linear(in_features=784, out_features=100, bias=True)
        (1): ReLU()
        (2): Linear(in_features=100, out_features=100, bias=True)
        (3): ReLU()
        (4): Linear(in_features=100, out_features=784, bias=True)
      )
    )
    (3): BatchNorm()
    (4): LinearMaskedCoupling(
      (s_net): Sequential(
        (0): Linear(in_features=784, out_features=100, bias=True)
        (1): Tanh()
        (2): Linear(in_features=100, out_features=100, bias=True)
        (3): Tanh()
        (4): Linear(in_features=100, out_features=784, bias=True)
      )
      (t_net): Sequential(
        (0): Linear(in_features=784, out_features=100, bias=True)
        (1): ReLU()
        (2): Linear(in_features=100, out_features=100, bias=True)
        (3): ReLU()
        (4): Linear(in_features=100, out_features=784, bias=True)
      )
    )
    (5): BatchNorm()
    (6): LinearMaskedCoupling(
      (s_net): Sequential(
        (0): Linear(in_features=784, out_features=100, bias=True)
        (1): Tanh()
        (2): Linear(in_features=100, out_features=100, bias=True)
        (3): Tanh()
        (4): Linear(in_features=100, out_features=784, bias=True)
      )
      (t_net): Sequential(
        (0): Linear(in_features=784, out_features=100, bias=True)
        (1): ReLU()
        (2): Linear(in_features=100, out_features=100, bias=True)
        (3): ReLU()
        (4): Linear(in_features=100, out_features=784, bias=True)
      )
    )
    (7): BatchNorm()
    (8): LinearMaskedCoupling(
      (s_net): Sequential(
        (0): Linear(in_features=784, out_features=100, bias=True)
        (1): Tanh()
        (2): Linear(in_features=100, out_features=100, bias=True)
        (3): Tanh()
        (4): Linear(in_features=100, out_features=784, bias=True)
      )
      (t_net): Sequential(
        (0): Linear(in_features=784, out_features=100, bias=True)
        (1): ReLU()
        (2): Linear(in_features=100, out_features=100, bias=True)
        (3): ReLU()
        (4): Linear(in_features=100, out_features=784, bias=True)
      )
    )
    (9): BatchNorm()
  )
)
Evaluate (epoch 0) -- logp(x) = -638.846 +/- 7.977
Evaluate (epoch 1) -- logp(x) = -637.949 +/- 7.931
Evaluate (epoch 2) -- logp(x) = -634.804 +/- 7.960
Evaluate (epoch 3) -- logp(x) = -634.997 +/- 7.968
Evaluate logp(x) = -13107.316 +/- 16.340

RealNVP(
  (net): FlowSequential(
    (0): LinearMaskedCoupling(
      (s_net): Sequential(
        (0): Linear(in_features=784, out_features=100, bias=True)
        (1): Tanh()
        (2): Linear(in_features=100, out_features=100, bias=True)
        (3): Tanh()
        (4): Linear(in_features=100, out_features=784, bias=True)
      )
      (t_net): Sequential(
        (0): Linear(in_features=784, out_features=100, bias=True)
        (1): ReLU()
        (2): Linear(in_features=100, out_features=100, bias=True)
        (3): ReLU()
        (4): Linear(in_features=100, out_features=784, bias=True)
      )
    )
    (1): BatchNorm()
    (2): LinearMaskedCoupling(
      (s_net): Sequential(
        (0): Linear(in_features=784, out_features=100, bias=True)
        (1): Tanh()
        (2): Linear(in_features=100, out_features=100, bias=True)
        (3): Tanh()
        (4): Linear(in_features=100, out_features=784, bias=True)
      )
      (t_net): Sequential(
        (0): Linear(in_features=784, out_features=100, bias=True)
        (1): ReLU()
        (2): Linear(in_features=100, out_features=100, bias=True)
        (3): ReLU()
        (4): Linear(in_features=100, out_features=784, bias=True)
      )
    )
    (3): BatchNorm()
    (4): LinearMaskedCoupling(
      (s_net): Sequential(
        (0): Linear(in_features=784, out_features=100, bias=True)
        (1): Tanh()
        (2): Linear(in_features=100, out_features=100, bias=True)
        (3): Tanh()
        (4): Linear(in_features=100, out_features=784, bias=True)
      )
      (t_net): Sequential(
        (0): Linear(in_features=784, out_features=100, bias=True)
        (1): ReLU()
        (2): Linear(in_features=100, out_features=100, bias=True)
        (3): ReLU()
        (4): Linear(in_features=100, out_features=784, bias=True)
      )
    )
    (5): BatchNorm()
    (6): LinearMaskedCoupling(
      (s_net): Sequential(
        (0): Linear(in_features=784, out_features=100, bias=True)
        (1): Tanh()
        (2): Linear(in_features=100, out_features=100, bias=True)
        (3): Tanh()
        (4): Linear(in_features=100, out_features=784, bias=True)
      )
      (t_net): Sequential(
        (0): Linear(in_features=784, out_features=100, bias=True)
        (1): ReLU()
        (2): Linear(in_features=100, out_features=100, bias=True)
        (3): ReLU()
        (4): Linear(in_features=100, out_features=784, bias=True)
      )
    )
    (7): BatchNorm()
    (8): LinearMaskedCoupling(
      (s_net): Sequential(
        (0): Linear(in_features=784, out_features=100, bias=True)
        (1): Tanh()
        (2): Linear(in_features=100, out_features=100, bias=True)
        (3): Tanh()
        (4): Linear(in_features=100, out_features=784, bias=True)
      )
      (t_net): Sequential(
        (0): Linear(in_features=784, out_features=100, bias=True)
        (1): ReLU()
        (2): Linear(in_features=100, out_features=100, bias=True)
        (3): ReLU()
        (4): Linear(in_features=100, out_features=784, bias=True)
      )
    )
    (9): BatchNorm()
  )
)
Evaluate (epoch 0) -- logp(x) = -1123.359 +/- 0.497
Evaluate (epoch 1) -- logp(x) = -1120.006 +/- 0.493
Evaluate (epoch 0) -- logp(x) = -1119.457 +/- 0.490
Evaluate (epoch 1) -- logp(x) = -1119.529 +/- 0.490
Evaluate (epoch 0) -- logp(x) = -1119.737 +/- 0.493
Evaluate (epoch 1) -- logp(x) = -1120.157 +/- 0.497
Evaluate logp(x) = -17489.148 +/- 18.462

RealNVP(
  (net): FlowSequential(
    (0): LinearMaskedCoupling(
      (s_net): Sequential(
        (0): Linear(in_features=784, out_features=100, bias=True)
        (1): Tanh()
        (2): Linear(in_features=100, out_features=100, bias=True)
        (3): Tanh()
        (4): Linear(in_features=100, out_features=784, bias=True)
      )
      (t_net): Sequential(
        (0): Linear(in_features=784, out_features=100, bias=True)
        (1): ReLU()
        (2): Linear(in_features=100, out_features=100, bias=True)
        (3): ReLU()
        (4): Linear(in_features=100, out_features=784, bias=True)
      )
    )
    (1): BatchNorm()
    (2): LinearMaskedCoupling(
      (s_net): Sequential(
        (0): Linear(in_features=784, out_features=100, bias=True)
        (1): Tanh()
        (2): Linear(in_features=100, out_features=100, bias=True)
        (3): Tanh()
        (4): Linear(in_features=100, out_features=784, bias=True)
      )
      (t_net): Sequential(
        (0): Linear(in_features=784, out_features=100, bias=True)
        (1): ReLU()
        (2): Linear(in_features=100, out_features=100, bias=True)
        (3): ReLU()
        (4): Linear(in_features=100, out_features=784, bias=True)
      )
    )
    (3): BatchNorm()
    (4): LinearMaskedCoupling(
      (s_net): Sequential(
        (0): Linear(in_features=784, out_features=100, bias=True)
        (1): Tanh()
        (2): Linear(in_features=100, out_features=100, bias=True)
        (3): Tanh()
        (4): Linear(in_features=100, out_features=784, bias=True)
      )
      (t_net): Sequential(
        (0): Linear(in_features=784, out_features=100, bias=True)
        (1): ReLU()
        (2): Linear(in_features=100, out_features=100, bias=True)
        (3): ReLU()
        (4): Linear(in_features=100, out_features=784, bias=True)
      )
    )
    (5): BatchNorm()
    (6): LinearMaskedCoupling(
      (s_net): Sequential(
        (0): Linear(in_features=784, out_features=100, bias=True)
        (1): Tanh()
        (2): Linear(in_features=100, out_features=100, bias=True)
        (3): Tanh()
        (4): Linear(in_features=100, out_features=784, bias=True)
      )
      (t_net): Sequential(
        (0): Linear(in_features=784, out_features=100, bias=True)
        (1): ReLU()
        (2): Linear(in_features=100, out_features=100, bias=True)
        (3): ReLU()
        (4): Linear(in_features=100, out_features=784, bias=True)
      )
    )
    (7): BatchNorm()
    (8): LinearMaskedCoupling(
      (s_net): Sequential(
        (0): Linear(in_features=784, out_features=100, bias=True)
        (1): Tanh()
        (2): Linear(in_features=100, out_features=100, bias=True)
        (3): Tanh()
        (4): Linear(in_features=100, out_features=784, bias=True)
      )
      (t_net): Sequential(
        (0): Linear(in_features=784, out_features=100, bias=True)
        (1): ReLU()
        (2): Linear(in_features=100, out_features=100, bias=True)
        (3): ReLU()
        (4): Linear(in_features=100, out_features=784, bias=True)
      )
    )
    (9): BatchNorm()
  )
)
Evaluate (epoch 0) -- logp(x) = -1118.187 +/- 0.339
Evaluate (epoch 1) -- logp(x) = -1116.935 +/- 0.339
Evaluate logp(x) = -16673.178 +/- 15.967
Evaluate (epoch 0) -- logp(x) = -1116.535 +/- 0.338
Evaluate (epoch 1) -- logp(x) = -1116.645 +/- 0.339
Evaluate logp(x) = -16561.189 +/- 15.298

RealNVP(
  (net): FlowSequential(
    (0): LinearMaskedCoupling(
      (s_net): Sequential(
        (0): Linear(in_features=784, out_features=100, bias=True)
        (1): Tanh()
        (2): Linear(in_features=100, out_features=100, bias=True)
        (3): Tanh()
        (4): Linear(in_features=100, out_features=784, bias=True)
      )
      (t_net): Sequential(
        (0): Linear(in_features=784, out_features=100, bias=True)
        (1): ReLU()
        (2): Linear(in_features=100, out_features=100, bias=True)
        (3): ReLU()
        (4): Linear(in_features=100, out_features=784, bias=True)
      )
    )
    (1): BatchNorm()
    (2): LinearMaskedCoupling(
      (s_net): Sequential(
        (0): Linear(in_features=784, out_features=100, bias=True)
        (1): Tanh()
        (2): Linear(in_features=100, out_features=100, bias=True)
        (3): Tanh()
        (4): Linear(in_features=100, out_features=784, bias=True)
      )
      (t_net): Sequential(
        (0): Linear(in_features=784, out_features=100, bias=True)
        (1): ReLU()
        (2): Linear(in_features=100, out_features=100, bias=True)
        (3): ReLU()
        (4): Linear(in_features=100, out_features=784, bias=True)
      )
    )
    (3): BatchNorm()
    (4): LinearMaskedCoupling(
      (s_net): Sequential(
        (0): Linear(in_features=784, out_features=100, bias=True)
        (1): Tanh()
        (2): Linear(in_features=100, out_features=100, bias=True)
        (3): Tanh()
        (4): Linear(in_features=100, out_features=784, bias=True)
      )
      (t_net): Sequential(
        (0): Linear(in_features=784, out_features=100, bias=True)
        (1): ReLU()
        (2): Linear(in_features=100, out_features=100, bias=True)
        (3): ReLU()
        (4): Linear(in_features=100, out_features=784, bias=True)
      )
    )
    (5): BatchNorm()
    (6): LinearMaskedCoupling(
      (s_net): Sequential(
        (0): Linear(in_features=784, out_features=100, bias=True)
        (1): Tanh()
        (2): Linear(in_features=100, out_features=100, bias=True)
        (3): Tanh()
        (4): Linear(in_features=100, out_features=784, bias=True)
      )
      (t_net): Sequential(
        (0): Linear(in_features=784, out_features=100, bias=True)
        (1): ReLU()
        (2): Linear(in_features=100, out_features=100, bias=True)
        (3): ReLU()
        (4): Linear(in_features=100, out_features=784, bias=True)
      )
    )
    (7): BatchNorm()
    (8): LinearMaskedCoupling(
      (s_net): Sequential(
        (0): Linear(in_features=784, out_features=100, bias=True)
        (1): Tanh()
        (2): Linear(in_features=100, out_features=100, bias=True)
        (3): Tanh()
        (4): Linear(in_features=100, out_features=784, bias=True)
      )
      (t_net): Sequential(
        (0): Linear(in_features=784, out_features=100, bias=True)
        (1): ReLU()
        (2): Linear(in_features=100, out_features=100, bias=True)
        (3): ReLU()
        (4): Linear(in_features=100, out_features=784, bias=True)
      )
    )
    (9): BatchNorm()
  )
)
Evaluate (epoch 0) -- logp(x) = -638.963 +/- 7.980
Evaluate (epoch 1) -- logp(x) = -637.697 +/- 7.936
Evaluate (epoch 2) -- logp(x) = -638.430 +/- 7.917
Evaluate (epoch 3) -- logp(x) = -638.902 +/- 7.911
Evaluate logp(x) = -13547.935 +/- 14.579

RealNVP(
  (net): FlowSequential(
    (0): LinearMaskedCoupling(
      (s_net): Sequential(
        (0): Linear(in_features=784, out_features=100, bias=True)
        (1): Tanh()
        (2): Linear(in_features=100, out_features=100, bias=True)
        (3): Tanh()
        (4): Linear(in_features=100, out_features=784, bias=True)
      )
      (t_net): Sequential(
        (0): Linear(in_features=784, out_features=100, bias=True)
        (1): ReLU()
        (2): Linear(in_features=100, out_features=100, bias=True)
        (3): ReLU()
        (4): Linear(in_features=100, out_features=784, bias=True)
      )
    )
    (1): BatchNorm()
    (2): LinearMaskedCoupling(
      (s_net): Sequential(
        (0): Linear(in_features=784, out_features=100, bias=True)
        (1): Tanh()
        (2): Linear(in_features=100, out_features=100, bias=True)
        (3): Tanh()
        (4): Linear(in_features=100, out_features=784, bias=True)
      )
      (t_net): Sequential(
        (0): Linear(in_features=784, out_features=100, bias=True)
        (1): ReLU()
        (2): Linear(in_features=100, out_features=100, bias=True)
        (3): ReLU()
        (4): Linear(in_features=100, out_features=784, bias=True)
      )
    )
    (3): BatchNorm()
    (4): LinearMaskedCoupling(
      (s_net): Sequential(
        (0): Linear(in_features=784, out_features=100, bias=True)
        (1): Tanh()
        (2): Linear(in_features=100, out_features=100, bias=True)
        (3): Tanh()
        (4): Linear(in_features=100, out_features=784, bias=True)
      )
      (t_net): Sequential(
        (0): Linear(in_features=784, out_features=100, bias=True)
        (1): ReLU()
        (2): Linear(in_features=100, out_features=100, bias=True)
        (3): ReLU()
        (4): Linear(in_features=100, out_features=784, bias=True)
      )
    )
    (5): BatchNorm()
    (6): LinearMaskedCoupling(
      (s_net): Sequential(
        (0): Linear(in_features=784, out_features=100, bias=True)
        (1): Tanh()
        (2): Linear(in_features=100, out_features=100, bias=True)
        (3): Tanh()
        (4): Linear(in_features=100, out_features=784, bias=True)
      )
      (t_net): Sequential(
        (0): Linear(in_features=784, out_features=100, bias=True)
        (1): ReLU()
        (2): Linear(in_features=100, out_features=100, bias=True)
        (3): ReLU()
        (4): Linear(in_features=100, out_features=784, bias=True)
      )
    )
    (7): BatchNorm()
    (8): LinearMaskedCoupling(
      (s_net): Sequential(
        (0): Linear(in_features=784, out_features=100, bias=True)
        (1): Tanh()
        (2): Linear(in_features=100, out_features=100, bias=True)
        (3): Tanh()
        (4): Linear(in_features=100, out_features=784, bias=True)
      )
      (t_net): Sequential(
        (0): Linear(in_features=784, out_features=100, bias=True)
        (1): ReLU()
        (2): Linear(in_features=100, out_features=100, bias=True)
        (3): ReLU()
        (4): Linear(in_features=100, out_features=784, bias=True)
      )
    )
    (9): BatchNorm()
  )
)
Evaluate (epoch 0) -- logp(x) = -1118.071 +/- 0.343
Evaluate (epoch 1) -- logp(x) = -1116.794 +/- 0.341
Evaluate (epoch 2) -- logp(x) = -1116.441 +/- 0.341
Evaluate (epoch 3) -- logp(x) = -1116.484 +/- 0.341
Evaluate (epoch 4) -- logp(x) = -1116.814 +/- 0.343
Evaluate (epoch 5) -- logp(x) = -1117.120 +/- 0.343
Evaluate (epoch 6) -- logp(x) = -1117.572 +/- 0.344
Evaluate (epoch 7) -- logp(x) = -1118.013 +/- 0.346
Evaluate (epoch 8) -- logp(x) = -1118.378 +/- 0.347
Evaluate (epoch 9) -- logp(x) = -1118.731 +/- 0.348
Evaluate (epoch 10) -- logp(x) = -1119.044 +/- 0.349
Evaluate (epoch 11) -- logp(x) = -1119.479 +/- 0.349
Evaluate (epoch 12) -- logp(x) = -1119.803 +/- 0.351
Evaluate (epoch 13) -- logp(x) = -1120.104 +/- 0.351
Evaluate (epoch 14) -- logp(x) = -1120.250 +/- 0.350
Evaluate (epoch 15) -- logp(x) = -1120.814 +/- 0.351
Evaluate (epoch 16) -- logp(x) = -1121.013 +/- 0.352
Evaluate (epoch 17) -- logp(x) = -1121.435 +/- 0.354
Evaluate (epoch 18) -- logp(x) = -1121.980 +/- 0.356
Evaluate (epoch 19) -- logp(x) = -1121.982 +/- 0.354
Evaluate (epoch 20) -- logp(x) = -1122.339 +/- 0.355
Evaluate (epoch 21) -- logp(x) = -1122.638 +/- 0.356
Evaluate (epoch 22) -- logp(x) = -1123.064 +/- 0.358
Evaluate (epoch 23) -- logp(x) = -1123.056 +/- 0.357
Evaluate (epoch 24) -- logp(x) = -1123.280 +/- 0.359
Evaluate (epoch 25) -- logp(x) = -1123.570 +/- 0.358
Evaluate (epoch 26) -- logp(x) = -1123.743 +/- 0.359
Evaluate (epoch 27) -- logp(x) = -1123.999 +/- 0.360
Evaluate (epoch 28) -- logp(x) = -1123.934 +/- 0.358
Evaluate (epoch 29) -- logp(x) = -1124.576 +/- 0.362
Evaluate (epoch 30) -- logp(x) = -1124.640 +/- 0.362
Evaluate (epoch 31) -- logp(x) = -1124.981 +/- 0.363
Evaluate (epoch 32) -- logp(x) = -1125.114 +/- 0.363
Evaluate (epoch 33) -- logp(x) = -1125.286 +/- 0.363
Evaluate (epoch 34) -- logp(x) = -1125.578 +/- 0.364
Evaluate (epoch 35) -- logp(x) = -1125.419 +/- 0.362
Evaluate (epoch 36) -- logp(x) = -1125.896 +/- 0.365
Evaluate (epoch 37) -- logp(x) = -1125.823 +/- 0.364
Evaluate (epoch 38) -- logp(x) = -1126.118 +/- 0.365
Evaluate (epoch 39) -- logp(x) = -1126.156 +/- 0.364
Evaluate (epoch 40) -- logp(x) = -1126.625 +/- 0.367
Evaluate (epoch 41) -- logp(x) = -1126.724 +/- 0.367
Evaluate (epoch 42) -- logp(x) = -1126.899 +/- 0.366
Evaluate (epoch 43) -- logp(x) = -1126.845 +/- 0.366
Evaluate (epoch 44) -- logp(x) = -1126.749 +/- 0.366
Evaluate (epoch 45) -- logp(x) = -1127.368 +/- 0.369
Evaluate (epoch 46) -- logp(x) = -1127.243 +/- 0.368
Evaluate (epoch 47) -- logp(x) = -1127.594 +/- 0.370
Evaluate (epoch 48) -- logp(x) = -1128.019 +/- 0.370
Evaluate (epoch 49) -- logp(x) = -1127.782 +/- 0.369
Evaluate (epoch 50) -- logp(x) = -1128.037 +/- 0.370
Evaluate (epoch 51) -- logp(x) = -1128.297 +/- 0.370
Evaluate (epoch 52) -- logp(x) = -1128.296 +/- 0.371
Evaluate (epoch 53) -- logp(x) = -1128.455 +/- 0.373
Evaluate (epoch 54) -- logp(x) = -1128.491 +/- 0.369
Evaluate (epoch 55) -- logp(x) = -1128.772 +/- 0.373
Evaluate (epoch 56) -- logp(x) = -1128.869 +/- 0.372
Evaluate (epoch 57) -- logp(x) = -1128.843 +/- 0.371
Evaluate (epoch 58) -- logp(x) = -1129.547 +/- 0.376
Evaluate (epoch 59) -- logp(x) = -1129.514 +/- 0.375
Evaluate (epoch 60) -- logp(x) = -1129.057 +/- 0.372
Evaluate (epoch 61) -- logp(x) = -1129.539 +/- 0.374
Evaluate (epoch 62) -- logp(x) = -1129.797 +/- 0.375
Evaluate (epoch 63) -- logp(x) = -1129.859 +/- 0.376
Evaluate (epoch 64) -- logp(x) = -1130.347 +/- 0.377
Evaluate (epoch 65) -- logp(x) = -1130.047 +/- 0.375
Evaluate (epoch 66) -- logp(x) = -1130.413 +/- 0.377
Evaluate (epoch 67) -- logp(x) = -1130.317 +/- 0.377
Evaluate (epoch 68) -- logp(x) = -1130.574 +/- 0.379
Evaluate (epoch 69) -- logp(x) = -1130.808 +/- 0.380
Evaluate (epoch 70) -- logp(x) = -1130.971 +/- 0.378
Evaluate (epoch 71) -- logp(x) = -1130.985 +/- 0.379
Evaluate (epoch 72) -- logp(x) = -1131.188 +/- 0.380
Evaluate (epoch 73) -- logp(x) = -1131.152 +/- 0.378
Evaluate (epoch 74) -- logp(x) = -1131.493 +/- 0.381
Evaluate (epoch 75) -- logp(x) = -1131.327 +/- 0.379
Evaluate (epoch 76) -- logp(x) = -1131.606 +/- 0.382
Evaluate (epoch 77) -- logp(x) = -1131.703 +/- 0.381
Evaluate (epoch 78) -- logp(x) = -1131.495 +/- 0.379
Evaluate (epoch 79) -- logp(x) = -1132.128 +/- 0.383
Evaluate (epoch 80) -- logp(x) = -1132.146 +/- 0.384
Evaluate (epoch 81) -- logp(x) = -1132.115 +/- 0.382
Evaluate (epoch 82) -- logp(x) = -1132.018 +/- 0.382
Evaluate (epoch 83) -- logp(x) = -1132.310 +/- 0.383
Evaluate (epoch 84) -- logp(x) = -1132.222 +/- 0.381
Evaluate (epoch 85) -- logp(x) = -1132.664 +/- 0.384
Evaluate (epoch 86) -- logp(x) = -1132.577 +/- 0.384
Evaluate (epoch 87) -- logp(x) = -1132.716 +/- 0.384
Evaluate (epoch 88) -- logp(x) = -1132.953 +/- 0.387
Evaluate (epoch 89) -- logp(x) = -1132.878 +/- 0.385
Evaluate (epoch 90) -- logp(x) = -1132.951 +/- 0.386
Evaluate (epoch 91) -- logp(x) = -1133.383 +/- 0.389
Evaluate (epoch 92) -- logp(x) = -1133.313 +/- 0.387
Evaluate (epoch 93) -- logp(x) = -1133.367 +/- 0.387
Evaluate (epoch 94) -- logp(x) = -1133.734 +/- 0.388
Evaluate (epoch 95) -- logp(x) = -1134.036 +/- 0.390
Evaluate (epoch 96) -- logp(x) = -1134.020 +/- 0.391
Evaluate (epoch 97) -- logp(x) = -1133.691 +/- 0.388
Evaluate (epoch 98) -- logp(x) = -1133.870 +/- 0.389
Evaluate (epoch 99) -- logp(x) = -1134.089 +/- 0.389
Evaluate (epoch 100) -- logp(x) = -1134.220 +/- 0.390
Evaluate (epoch 101) -- logp(x) = -1133.934 +/- 0.387
Evaluate (epoch 102) -- logp(x) = -1134.161 +/- 0.389
Evaluate (epoch 103) -- logp(x) = -1134.511 +/- 0.392
Evaluate (epoch 104) -- logp(x) = -1134.711 +/- 0.393
Evaluate (epoch 105) -- logp(x) = -1134.589 +/- 0.392
Evaluate (epoch 106) -- logp(x) = -1134.665 +/- 0.390
Evaluate (epoch 107) -- logp(x) = -1134.599 +/- 0.390
Evaluate (epoch 108) -- logp(x) = -1134.695 +/- 0.391
Evaluate (epoch 109) -- logp(x) = -1135.136 +/- 0.394
Evaluate (epoch 110) -- logp(x) = -1134.814 +/- 0.392
Evaluate (epoch 111) -- logp(x) = -1135.047 +/- 0.392
Evaluate (epoch 112) -- logp(x) = -1135.336 +/- 0.394
Evaluate (epoch 113) -- logp(x) = -1135.001 +/- 0.392
Evaluate (epoch 114) -- logp(x) = -1135.472 +/- 0.395
Evaluate (epoch 115) -- logp(x) = -1135.384 +/- 0.394
Evaluate (epoch 116) -- logp(x) = -1135.322 +/- 0.394
Evaluate (epoch 117) -- logp(x) = -1135.883 +/- 0.397
Evaluate (epoch 118) -- logp(x) = -1135.548 +/- 0.395
Evaluate (epoch 119) -- logp(x) = -1135.460 +/- 0.395
Evaluate (epoch 120) -- logp(x) = -1135.477 +/- 0.395
Evaluate (epoch 121) -- logp(x) = -1135.988 +/- 0.396
Evaluate (epoch 122) -- logp(x) = -1135.397 +/- 0.393
Evaluate (epoch 123) -- logp(x) = -1135.902 +/- 0.395
Evaluate (epoch 124) -- logp(x) = -1136.486 +/- 0.400
Evaluate (epoch 125) -- logp(x) = -1136.397 +/- 0.398
Evaluate (epoch 126) -- logp(x) = -1136.207 +/- 0.396
Evaluate (epoch 127) -- logp(x) = -1136.366 +/- 0.399
Evaluate (epoch 128) -- logp(x) = -1136.703 +/- 0.400
Evaluate (epoch 129) -- logp(x) = -1136.357 +/- 0.398
Evaluate (epoch 130) -- logp(x) = -1136.524 +/- 0.398
Evaluate (epoch 131) -- logp(x) = -1136.561 +/- 0.398
Evaluate (epoch 132) -- logp(x) = -1136.639 +/- 0.399
Evaluate (epoch 133) -- logp(x) = -1136.373 +/- 0.397
Evaluate (epoch 134) -- logp(x) = -1136.722 +/- 0.399
Evaluate (epoch 135) -- logp(x) = -1136.979 +/- 0.401
Evaluate (epoch 136) -- logp(x) = -1137.004 +/- 0.401
Evaluate (epoch 137) -- logp(x) = -1136.673 +/- 0.399
Evaluate (epoch 138) -- logp(x) = -1136.869 +/- 0.399
Evaluate (epoch 139) -- logp(x) = -1137.170 +/- 0.401
Evaluate (epoch 140) -- logp(x) = -1136.879 +/- 0.400
Evaluate (epoch 141) -- logp(x) = -1136.926 +/- 0.400
Evaluate (epoch 142) -- logp(x) = -1137.060 +/- 0.399
Evaluate (epoch 143) -- logp(x) = -1137.516 +/- 0.402
Evaluate (epoch 144) -- logp(x) = -1137.324 +/- 0.401
Evaluate (epoch 145) -- logp(x) = -1137.378 +/- 0.402
Evaluate (epoch 146) -- logp(x) = -1137.331 +/- 0.401
Evaluate (epoch 147) -- logp(x) = -1137.812 +/- 0.403
Evaluate (epoch 148) -- logp(x) = -1137.816 +/- 0.403
Evaluate (epoch 149) -- logp(x) = -1137.590 +/- 0.402
Evaluate (epoch 150) -- logp(x) = -1137.414 +/- 0.401
Evaluate (epoch 151) -- logp(x) = -1137.672 +/- 0.402
Evaluate (epoch 152) -- logp(x) = -1137.750 +/- 0.403
Evaluate (epoch 153) -- logp(x) = -1137.794 +/- 0.404
Evaluate (epoch 154) -- logp(x) = -1137.972 +/- 0.404
Evaluate (epoch 155) -- logp(x) = -1137.981 +/- 0.404
Evaluate (epoch 156) -- logp(x) = -1138.292 +/- 0.406
Evaluate (epoch 157) -- logp(x) = -1138.216 +/- 0.406
Evaluate (epoch 158) -- logp(x) = -1138.281 +/- 0.407
Evaluate (epoch 159) -- logp(x) = -1138.564 +/- 0.407
Evaluate (epoch 160) -- logp(x) = -1138.405 +/- 0.406
Evaluate (epoch 161) -- logp(x) = -1138.014 +/- 0.404
Evaluate (epoch 162) -- logp(x) = -1138.722 +/- 0.407
Evaluate (epoch 163) -- logp(x) = -1138.275 +/- 0.405
Evaluate (epoch 164) -- logp(x) = -1138.497 +/- 0.406
Evaluate (epoch 165) -- logp(x) = -1138.110 +/- 0.404
Evaluate (epoch 166) -- logp(x) = -1138.579 +/- 0.407
Evaluate (epoch 167) -- logp(x) = -1138.868 +/- 0.408
Evaluate (epoch 168) -- logp(x) = -1139.156 +/- 0.409
Evaluate (epoch 169) -- logp(x) = -1138.880 +/- 0.407
Evaluate (epoch 170) -- logp(x) = -1138.746 +/- 0.407
Evaluate (epoch 171) -- logp(x) = -1138.947 +/- 0.408
Evaluate (epoch 172) -- logp(x) = -1139.072 +/- 0.408
Evaluate (epoch 173) -- logp(x) = -1139.265 +/- 0.410
Evaluate (epoch 174) -- logp(x) = -1139.113 +/- 0.409
Evaluate (epoch 175) -- logp(x) = -1139.691 +/- 0.412
Evaluate (epoch 176) -- logp(x) = -1139.320 +/- 0.410
Evaluate (epoch 177) -- logp(x) = -1139.213 +/- 0.410
Evaluate (epoch 178) -- logp(x) = -1138.925 +/- 0.408
Evaluate (epoch 179) -- logp(x) = -1139.458 +/- 0.411
Evaluate (epoch 180) -- logp(x) = -1139.557 +/- 0.412
Evaluate (epoch 181) -- logp(x) = -1139.622 +/- 0.412
Evaluate (epoch 182) -- logp(x) = -1139.549 +/- 0.411
Evaluate (epoch 183) -- logp(x) = -1139.335 +/- 0.410
Evaluate (epoch 184) -- logp(x) = -1139.811 +/- 0.413
Evaluate (epoch 185) -- logp(x) = -1139.935 +/- 0.413
Evaluate (epoch 186) -- logp(x) = -1139.444 +/- 0.409
Evaluate (epoch 187) -- logp(x) = -1139.580 +/- 0.411
Evaluate (epoch 188) -- logp(x) = -1139.770 +/- 0.411
Evaluate (epoch 189) -- logp(x) = -1139.918 +/- 0.413
Evaluate (epoch 190) -- logp(x) = -1139.924 +/- 0.412
Evaluate (epoch 191) -- logp(x) = -1139.853 +/- 0.411
Evaluate (epoch 192) -- logp(x) = -1139.734 +/- 0.411
Evaluate (epoch 193) -- logp(x) = -1140.072 +/- 0.413
Evaluate (epoch 194) -- logp(x) = -1139.712 +/- 0.411
Evaluate (epoch 195) -- logp(x) = -1140.136 +/- 0.413
Evaluate (epoch 196) -- logp(x) = -1139.807 +/- 0.412
Evaluate (epoch 197) -- logp(x) = -1140.078 +/- 0.412
Evaluate (epoch 198) -- logp(x) = -1140.311 +/- 0.415
Evaluate (epoch 199) -- logp(x) = -1140.275 +/- 0.414
Evaluate (epoch 200) -- logp(x) = -1140.293 +/- 0.413
Evaluate (epoch 201) -- logp(x) = -1140.194 +/- 0.415
Evaluate (epoch 202) -- logp(x) = -1140.720 +/- 0.416
Evaluate (epoch 203) -- logp(x) = -1140.543 +/- 0.415
Evaluate (epoch 204) -- logp(x) = -1140.339 +/- 0.413
Evaluate (epoch 205) -- logp(x) = -1140.689 +/- 0.416
Evaluate (epoch 206) -- logp(x) = -1140.744 +/- 0.415
Evaluate (epoch 207) -- logp(x) = -1140.823 +/- 0.416
Evaluate (epoch 208) -- logp(x) = -1140.611 +/- 0.417
Evaluate (epoch 209) -- logp(x) = -1140.850 +/- 0.417
Evaluate (epoch 210) -- logp(x) = -1140.833 +/- 0.416
Evaluate (epoch 211) -- logp(x) = -1140.514 +/- 0.415
Evaluate (epoch 212) -- logp(x) = -1141.211 +/- 0.419
Evaluate (epoch 213) -- logp(x) = -1140.903 +/- 0.416
Evaluate (epoch 214) -- logp(x) = -1140.880 +/- 0.416
Evaluate (epoch 215) -- logp(x) = -1140.836 +/- 0.415
Evaluate (epoch 216) -- logp(x) = -1141.052 +/- 0.417
Evaluate (epoch 217) -- logp(x) = -1140.856 +/- 0.416
Evaluate (epoch 218) -- logp(x) = -1141.388 +/- 0.419
Evaluate (epoch 219) -- logp(x) = -1140.663 +/- 0.416
Evaluate (epoch 220) -- logp(x) = -1141.189 +/- 0.418
Evaluate (epoch 221) -- logp(x) = -1141.023 +/- 0.417
Evaluate (epoch 222) -- logp(x) = -1141.511 +/- 0.419
Evaluate (epoch 223) -- logp(x) = -1141.033 +/- 0.417
Evaluate (epoch 224) -- logp(x) = -1141.109 +/- 0.417
Evaluate (epoch 225) -- logp(x) = -1141.538 +/- 0.420
Evaluate (epoch 226) -- logp(x) = -1141.124 +/- 0.417
Evaluate (epoch 227) -- logp(x) = -1141.483 +/- 0.419
Evaluate (epoch 228) -- logp(x) = -1141.555 +/- 0.419
Evaluate (epoch 229) -- logp(x) = -1140.984 +/- 0.417
Evaluate (epoch 230) -- logp(x) = -1141.178 +/- 0.417
Evaluate (epoch 231) -- logp(x) = -1141.634 +/- 0.420
Evaluate (epoch 232) -- logp(x) = -1141.739 +/- 0.420
Evaluate (epoch 233) -- logp(x) = -1141.450 +/- 0.419
Evaluate (epoch 234) -- logp(x) = -1141.638 +/- 0.420
Evaluate (epoch 235) -- logp(x) = -1141.670 +/- 0.419
Evaluate (epoch 236) -- logp(x) = -1141.609 +/- 0.420
Evaluate (epoch 237) -- logp(x) = -1141.800 +/- 0.421
Evaluate (epoch 238) -- logp(x) = -1142.143 +/- 0.422
Evaluate (epoch 239) -- logp(x) = -1141.703 +/- 0.420
Evaluate (epoch 240) -- logp(x) = -1141.781 +/- 0.421
Evaluate (epoch 241) -- logp(x) = -1142.168 +/- 0.422
Evaluate (epoch 242) -- logp(x) = -1142.034 +/- 0.422
Evaluate (epoch 243) -- logp(x) = -1141.774 +/- 0.420
Evaluate (epoch 244) -- logp(x) = -1141.606 +/- 0.419
Evaluate (epoch 245) -- logp(x) = -1142.060 +/- 0.421
Evaluate (epoch 246) -- logp(x) = -1142.132 +/- 0.421
Evaluate (epoch 247) -- logp(x) = -1141.993 +/- 0.422
Evaluate (epoch 248) -- logp(x) = -1141.625 +/- 0.419
Evaluate (epoch 249) -- logp(x) = -1142.057 +/- 0.422
Evaluate (epoch 250) -- logp(x) = -1141.777 +/- 0.420
Evaluate (epoch 251) -- logp(x) = -1142.338 +/- 0.423
Evaluate (epoch 252) -- logp(x) = -1142.275 +/- 0.422
Evaluate (epoch 253) -- logp(x) = -1142.647 +/- 0.425
Evaluate (epoch 254) -- logp(x) = -1142.334 +/- 0.424
Evaluate (epoch 255) -- logp(x) = -1142.055 +/- 0.422
Evaluate (epoch 256) -- logp(x) = -1141.824 +/- 0.420
Evaluate (epoch 257) -- logp(x) = -1142.296 +/- 0.423
Evaluate (epoch 258) -- logp(x) = -1142.535 +/- 0.425
Evaluate (epoch 259) -- logp(x) = -1142.596 +/- 0.425
Evaluate (epoch 260) -- logp(x) = -1142.591 +/- 0.423
Evaluate (epoch 261) -- logp(x) = -1142.638 +/- 0.426
Evaluate (epoch 262) -- logp(x) = -1142.224 +/- 0.421
Evaluate (epoch 263) -- logp(x) = -1143.046 +/- 0.426
Evaluate (epoch 264) -- logp(x) = -1142.518 +/- 0.424
Evaluate (epoch 265) -- logp(x) = -1142.464 +/- 0.423
Evaluate (epoch 266) -- logp(x) = -1142.306 +/- 0.424
Evaluate (epoch 267) -- logp(x) = -1142.496 +/- 0.423
Evaluate (epoch 268) -- logp(x) = -1142.602 +/- 0.425
Evaluate (epoch 269) -- logp(x) = -1142.907 +/- 0.426
Evaluate (epoch 270) -- logp(x) = -1142.929 +/- 0.426
Evaluate (epoch 271) -- logp(x) = -1142.599 +/- 0.424
Evaluate (epoch 272) -- logp(x) = -1142.931 +/- 0.426
Evaluate (epoch 273) -- logp(x) = -1142.763 +/- 0.425
Evaluate (epoch 274) -- logp(x) = -1142.869 +/- 0.425
Evaluate (epoch 275) -- logp(x) = -1143.066 +/- 0.428
Evaluate (epoch 276) -- logp(x) = -1143.022 +/- 0.426
Evaluate (epoch 277) -- logp(x) = -1142.724 +/- 0.423
Evaluate (epoch 278) -- logp(x) = -1142.971 +/- 0.425
Evaluate (epoch 279) -- logp(x) = -1142.926 +/- 0.426
Evaluate (epoch 280) -- logp(x) = -1142.715 +/- 0.425
Evaluate (epoch 281) -- logp(x) = -1142.975 +/- 0.426
Evaluate (epoch 282) -- logp(x) = -1142.662 +/- 0.424
Evaluate (epoch 283) -- logp(x) = -1143.202 +/- 0.428
Evaluate (epoch 284) -- logp(x) = -1143.091 +/- 0.426
Evaluate (epoch 285) -- logp(x) = -1143.056 +/- 0.427
Evaluate (epoch 286) -- logp(x) = -1143.107 +/- 0.427
Evaluate (epoch 287) -- logp(x) = -1143.034 +/- 0.428
Evaluate (epoch 288) -- logp(x) = -1142.966 +/- 0.426
Evaluate (epoch 289) -- logp(x) = -1142.861 +/- 0.424
Evaluate (epoch 290) -- logp(x) = -1143.188 +/- 0.427
Evaluate (epoch 291) -- logp(x) = -1143.029 +/- 0.427
Evaluate (epoch 292) -- logp(x) = -1143.272 +/- 0.429
Evaluate (epoch 293) -- logp(x) = -1143.079 +/- 0.428
Evaluate (epoch 294) -- logp(x) = -1143.418 +/- 0.428
Evaluate (epoch 295) -- logp(x) = -1143.573 +/- 0.429
Evaluate (epoch 296) -- logp(x) = -1143.681 +/- 0.430
Evaluate (epoch 297) -- logp(x) = -1143.247 +/- 0.428
Evaluate (epoch 298) -- logp(x) = -1143.013 +/- 0.427
Evaluate (epoch 299) -- logp(x) = -1143.345 +/- 0.428
Evaluate logp(x) = -28018.455 +/- 46.672
Evaluate logp(x) = -28018.455 +/- 46.672
