{'activation_fn': 'relu',
 'batch_size': 64,
 'cond_label_size': None,
 'conditional': False,
 'data_dir': './data/',
 'dataset': 'MNIST',
 'device': device(type='cpu'),
 'evaluate': False,
 'flip_toy_var_order': False,
 'generate': False,
 'hidden_size': 100,
 'input_dims': (1, 28, 28),
 'input_order': 'sequential',
 'input_size': 784,
 'log_interval': 1000,
 'lr': 0.0001,
 'model': 'realnvp',
 'n_blocks': 5,
 'n_components': 1,
 'n_epochs': 5,
 'n_hidden': 1,
 'no_batch_norm': False,
 'no_cuda': False,
 'output_dir': './results/',
 'restore_file': None,
 'results_file': './results/results.txt',
 'seed': 1,
 'start_epoch': 0,
 'train': False}
RealNVP(
  (net): FlowSequential(
    (0): LinearMaskedCoupling(
      (s_net): Sequential(
        (0): Linear(in_features=784, out_features=100, bias=True)
        (1): Tanh()
        (2): Linear(in_features=100, out_features=100, bias=True)
        (3): Tanh()
        (4): Linear(in_features=100, out_features=784, bias=True)
      )
      (t_net): Sequential(
        (0): Linear(in_features=784, out_features=100, bias=True)
        (1): ReLU()
        (2): Linear(in_features=100, out_features=100, bias=True)
        (3): ReLU()
        (4): Linear(in_features=100, out_features=784, bias=True)
      )
    )
    (1): BatchNorm()
    (2): LinearMaskedCoupling(
      (s_net): Sequential(
        (0): Linear(in_features=784, out_features=100, bias=True)
        (1): Tanh()
        (2): Linear(in_features=100, out_features=100, bias=True)
        (3): Tanh()
        (4): Linear(in_features=100, out_features=784, bias=True)
      )
      (t_net): Sequential(
        (0): Linear(in_features=784, out_features=100, bias=True)
        (1): ReLU()
        (2): Linear(in_features=100, out_features=100, bias=True)
        (3): ReLU()
        (4): Linear(in_features=100, out_features=784, bias=True)
      )
    )
    (3): BatchNorm()
    (4): LinearMaskedCoupling(
      (s_net): Sequential(
        (0): Linear(in_features=784, out_features=100, bias=True)
        (1): Tanh()
        (2): Linear(in_features=100, out_features=100, bias=True)
        (3): Tanh()
        (4): Linear(in_features=100, out_features=784, bias=True)
      )
      (t_net): Sequential(
        (0): Linear(in_features=784, out_features=100, bias=True)
        (1): ReLU()
        (2): Linear(in_features=100, out_features=100, bias=True)
        (3): ReLU()
        (4): Linear(in_features=100, out_features=784, bias=True)
      )
    )
    (5): BatchNorm()
    (6): LinearMaskedCoupling(
      (s_net): Sequential(
        (0): Linear(in_features=784, out_features=100, bias=True)
        (1): Tanh()
        (2): Linear(in_features=100, out_features=100, bias=True)
        (3): Tanh()
        (4): Linear(in_features=100, out_features=784, bias=True)
      )
      (t_net): Sequential(
        (0): Linear(in_features=784, out_features=100, bias=True)
        (1): ReLU()
        (2): Linear(in_features=100, out_features=100, bias=True)
        (3): ReLU()
        (4): Linear(in_features=100, out_features=784, bias=True)
      )
    )
    (7): BatchNorm()
    (8): LinearMaskedCoupling(
      (s_net): Sequential(
        (0): Linear(in_features=784, out_features=100, bias=True)
        (1): Tanh()
        (2): Linear(in_features=100, out_features=100, bias=True)
        (3): Tanh()
        (4): Linear(in_features=100, out_features=784, bias=True)
      )
      (t_net): Sequential(
        (0): Linear(in_features=784, out_features=100, bias=True)
        (1): ReLU()
        (2): Linear(in_features=100, out_features=100, bias=True)
        (3): ReLU()
        (4): Linear(in_features=100, out_features=784, bias=True)
      )
    )
    (9): BatchNorm()
  )
)
{'activation_fn': 'relu',
 'batch_size': 64,
 'cond_label_size': None,
 'conditional': False,
 'data_dir': './data/',
 'dataset': 'MNIST',
 'device': device(type='cpu'),
 'evaluate': False,
 'flip_toy_var_order': False,
 'generate': False,
 'hidden_size': 100,
 'input_dims': (1, 28, 28),
 'input_order': 'sequential',
 'input_size': 784,
 'log_interval': 1000,
 'lr': 0.0001,
 'model': 'realnvp',
 'n_blocks': 5,
 'n_components': 1,
 'n_epochs': 5,
 'n_hidden': 1,
 'no_batch_norm': False,
 'no_cuda': False,
 'output_dir': './results/',
 'restore_file': None,
 'results_file': './results/results.txt',
 'seed': 1,
 'start_epoch': 0,
 'train': True}
RealNVP(
  (net): FlowSequential(
    (0): LinearMaskedCoupling(
      (s_net): Sequential(
        (0): Linear(in_features=784, out_features=100, bias=True)
        (1): Tanh()
        (2): Linear(in_features=100, out_features=100, bias=True)
        (3): Tanh()
        (4): Linear(in_features=100, out_features=784, bias=True)
      )
      (t_net): Sequential(
        (0): Linear(in_features=784, out_features=100, bias=True)
        (1): ReLU()
        (2): Linear(in_features=100, out_features=100, bias=True)
        (3): ReLU()
        (4): Linear(in_features=100, out_features=784, bias=True)
      )
    )
    (1): BatchNorm()
    (2): LinearMaskedCoupling(
      (s_net): Sequential(
        (0): Linear(in_features=784, out_features=100, bias=True)
        (1): Tanh()
        (2): Linear(in_features=100, out_features=100, bias=True)
        (3): Tanh()
        (4): Linear(in_features=100, out_features=784, bias=True)
      )
      (t_net): Sequential(
        (0): Linear(in_features=784, out_features=100, bias=True)
        (1): ReLU()
        (2): Linear(in_features=100, out_features=100, bias=True)
        (3): ReLU()
        (4): Linear(in_features=100, out_features=784, bias=True)
      )
    )
    (3): BatchNorm()
    (4): LinearMaskedCoupling(
      (s_net): Sequential(
        (0): Linear(in_features=784, out_features=100, bias=True)
        (1): Tanh()
        (2): Linear(in_features=100, out_features=100, bias=True)
        (3): Tanh()
        (4): Linear(in_features=100, out_features=784, bias=True)
      )
      (t_net): Sequential(
        (0): Linear(in_features=784, out_features=100, bias=True)
        (1): ReLU()
        (2): Linear(in_features=100, out_features=100, bias=True)
        (3): ReLU()
        (4): Linear(in_features=100, out_features=784, bias=True)
      )
    )
    (5): BatchNorm()
    (6): LinearMaskedCoupling(
      (s_net): Sequential(
        (0): Linear(in_features=784, out_features=100, bias=True)
        (1): Tanh()
        (2): Linear(in_features=100, out_features=100, bias=True)
        (3): Tanh()
        (4): Linear(in_features=100, out_features=784, bias=True)
      )
      (t_net): Sequential(
        (0): Linear(in_features=784, out_features=100, bias=True)
        (1): ReLU()
        (2): Linear(in_features=100, out_features=100, bias=True)
        (3): ReLU()
        (4): Linear(in_features=100, out_features=784, bias=True)
      )
    )
    (7): BatchNorm()
    (8): LinearMaskedCoupling(
      (s_net): Sequential(
        (0): Linear(in_features=784, out_features=100, bias=True)
        (1): Tanh()
        (2): Linear(in_features=100, out_features=100, bias=True)
        (3): Tanh()
        (4): Linear(in_features=100, out_features=784, bias=True)
      )
      (t_net): Sequential(
        (0): Linear(in_features=784, out_features=100, bias=True)
        (1): ReLU()
        (2): Linear(in_features=100, out_features=100, bias=True)
        (3): ReLU()
        (4): Linear(in_features=100, out_features=784, bias=True)
      )
    )
    (9): BatchNorm()
  )
)
{'activation_fn': 'relu',
 'batch_size': 32,
 'cond_label_size': None,
 'conditional': False,
 'data_dir': './data/',
 'dataset': 'MNIST',
 'device': device(type='cpu'),
 'evaluate': False,
 'flip_toy_var_order': False,
 'generate': False,
 'hidden_size': 100,
 'input_dims': (1, 28, 28),
 'input_order': 'sequential',
 'input_size': 784,
 'log_interval': 1000,
 'lr': 0.0001,
 'model': 'realnvp',
 'n_blocks': 5,
 'n_components': 1,
 'n_epochs': 1,
 'n_hidden': 1,
 'no_batch_norm': False,
 'no_cuda': False,
 'output_dir': './results/',
 'restore_file': None,
 'results_file': './results/results.txt',
 'seed': 1,
 'start_epoch': 0,
 'train': True}
RealNVP(
  (net): FlowSequential(
    (0): LinearMaskedCoupling(
      (s_net): Sequential(
        (0): Linear(in_features=784, out_features=100, bias=True)
        (1): Tanh()
        (2): Linear(in_features=100, out_features=100, bias=True)
        (3): Tanh()
        (4): Linear(in_features=100, out_features=784, bias=True)
      )
      (t_net): Sequential(
        (0): Linear(in_features=784, out_features=100, bias=True)
        (1): ReLU()
        (2): Linear(in_features=100, out_features=100, bias=True)
        (3): ReLU()
        (4): Linear(in_features=100, out_features=784, bias=True)
      )
    )
    (1): BatchNorm()
    (2): LinearMaskedCoupling(
      (s_net): Sequential(
        (0): Linear(in_features=784, out_features=100, bias=True)
        (1): Tanh()
        (2): Linear(in_features=100, out_features=100, bias=True)
        (3): Tanh()
        (4): Linear(in_features=100, out_features=784, bias=True)
      )
      (t_net): Sequential(
        (0): Linear(in_features=784, out_features=100, bias=True)
        (1): ReLU()
        (2): Linear(in_features=100, out_features=100, bias=True)
        (3): ReLU()
        (4): Linear(in_features=100, out_features=784, bias=True)
      )
    )
    (3): BatchNorm()
    (4): LinearMaskedCoupling(
      (s_net): Sequential(
        (0): Linear(in_features=784, out_features=100, bias=True)
        (1): Tanh()
        (2): Linear(in_features=100, out_features=100, bias=True)
        (3): Tanh()
        (4): Linear(in_features=100, out_features=784, bias=True)
      )
      (t_net): Sequential(
        (0): Linear(in_features=784, out_features=100, bias=True)
        (1): ReLU()
        (2): Linear(in_features=100, out_features=100, bias=True)
        (3): ReLU()
        (4): Linear(in_features=100, out_features=784, bias=True)
      )
    )
    (5): BatchNorm()
    (6): LinearMaskedCoupling(
      (s_net): Sequential(
        (0): Linear(in_features=784, out_features=100, bias=True)
        (1): Tanh()
        (2): Linear(in_features=100, out_features=100, bias=True)
        (3): Tanh()
        (4): Linear(in_features=100, out_features=784, bias=True)
      )
      (t_net): Sequential(
        (0): Linear(in_features=784, out_features=100, bias=True)
        (1): ReLU()
        (2): Linear(in_features=100, out_features=100, bias=True)
        (3): ReLU()
        (4): Linear(in_features=100, out_features=784, bias=True)
      )
    )
    (7): BatchNorm()
    (8): LinearMaskedCoupling(
      (s_net): Sequential(
        (0): Linear(in_features=784, out_features=100, bias=True)
        (1): Tanh()
        (2): Linear(in_features=100, out_features=100, bias=True)
        (3): Tanh()
        (4): Linear(in_features=100, out_features=784, bias=True)
      )
      (t_net): Sequential(
        (0): Linear(in_features=784, out_features=100, bias=True)
        (1): ReLU()
        (2): Linear(in_features=100, out_features=100, bias=True)
        (3): ReLU()
        (4): Linear(in_features=100, out_features=784, bias=True)
      )
    )
    (9): BatchNorm()
  )
)
Evaluate (epoch 0) -- logp(x) = -1412.367 +/- 1.620
{'activation_fn': 'relu',
 'batch_size': 32,
 'cond_label_size': None,
 'conditional': False,
 'data_dir': './data/',
 'dataset': 'MNIST',
 'device': device(type='cpu'),
 'evaluate': True,
 'flip_toy_var_order': False,
 'generate': False,
 'hidden_size': 100,
 'input_dims': (1, 28, 28),
 'input_order': 'sequential',
 'input_size': 784,
 'log_interval': 1000,
 'lr': 0.0001,
 'model': 'realnvp',
 'n_blocks': 5,
 'n_components': 1,
 'n_epochs': 1,
 'n_hidden': 1,
 'no_batch_norm': False,
 'no_cuda': False,
 'output_dir': './results/',
 'restore_file': None,
 'results_file': './results/results.txt',
 'seed': 1,
 'start_epoch': 0,
 'train': True}
RealNVP(
  (net): FlowSequential(
    (0): LinearMaskedCoupling(
      (s_net): Sequential(
        (0): Linear(in_features=784, out_features=100, bias=True)
        (1): Tanh()
        (2): Linear(in_features=100, out_features=100, bias=True)
        (3): Tanh()
        (4): Linear(in_features=100, out_features=784, bias=True)
      )
      (t_net): Sequential(
        (0): Linear(in_features=784, out_features=100, bias=True)
        (1): ReLU()
        (2): Linear(in_features=100, out_features=100, bias=True)
        (3): ReLU()
        (4): Linear(in_features=100, out_features=784, bias=True)
      )
    )
    (1): BatchNorm()
    (2): LinearMaskedCoupling(
      (s_net): Sequential(
        (0): Linear(in_features=784, out_features=100, bias=True)
        (1): Tanh()
        (2): Linear(in_features=100, out_features=100, bias=True)
        (3): Tanh()
        (4): Linear(in_features=100, out_features=784, bias=True)
      )
      (t_net): Sequential(
        (0): Linear(in_features=784, out_features=100, bias=True)
        (1): ReLU()
        (2): Linear(in_features=100, out_features=100, bias=True)
        (3): ReLU()
        (4): Linear(in_features=100, out_features=784, bias=True)
      )
    )
    (3): BatchNorm()
    (4): LinearMaskedCoupling(
      (s_net): Sequential(
        (0): Linear(in_features=784, out_features=100, bias=True)
        (1): Tanh()
        (2): Linear(in_features=100, out_features=100, bias=True)
        (3): Tanh()
        (4): Linear(in_features=100, out_features=784, bias=True)
      )
      (t_net): Sequential(
        (0): Linear(in_features=784, out_features=100, bias=True)
        (1): ReLU()
        (2): Linear(in_features=100, out_features=100, bias=True)
        (3): ReLU()
        (4): Linear(in_features=100, out_features=784, bias=True)
      )
    )
    (5): BatchNorm()
    (6): LinearMaskedCoupling(
      (s_net): Sequential(
        (0): Linear(in_features=784, out_features=100, bias=True)
        (1): Tanh()
        (2): Linear(in_features=100, out_features=100, bias=True)
        (3): Tanh()
        (4): Linear(in_features=100, out_features=784, bias=True)
      )
      (t_net): Sequential(
        (0): Linear(in_features=784, out_features=100, bias=True)
        (1): ReLU()
        (2): Linear(in_features=100, out_features=100, bias=True)
        (3): ReLU()
        (4): Linear(in_features=100, out_features=784, bias=True)
      )
    )
    (7): BatchNorm()
    (8): LinearMaskedCoupling(
      (s_net): Sequential(
        (0): Linear(in_features=784, out_features=100, bias=True)
        (1): Tanh()
        (2): Linear(in_features=100, out_features=100, bias=True)
        (3): Tanh()
        (4): Linear(in_features=100, out_features=784, bias=True)
      )
      (t_net): Sequential(
        (0): Linear(in_features=784, out_features=100, bias=True)
        (1): ReLU()
        (2): Linear(in_features=100, out_features=100, bias=True)
        (3): ReLU()
        (4): Linear(in_features=100, out_features=784, bias=True)
      )
    )
    (9): BatchNorm()
  )
)
Evaluate (epoch 0) -- logp(x) = -1412.367 +/- 1.620
Evaluate logp(x) = -1412.367 +/- 1.620
{'activation_fn': 'relu',
 'batch_size': 32,
 'cond_label_size': None,
 'conditional': False,
 'data_dir': './data/',
 'dataset': 'MNIST',
 'device': device(type='cpu'),
 'evaluate': True,
 'flip_toy_var_order': False,
 'generate': True,
 'hidden_size': 100,
 'input_dims': (1, 28, 28),
 'input_order': 'sequential',
 'input_size': 784,
 'log_interval': 1000,
 'lr': 0.0001,
 'model': 'realnvp',
 'n_blocks': 5,
 'n_components': 1,
 'n_epochs': 1,
 'n_hidden': 1,
 'no_batch_norm': False,
 'no_cuda': False,
 'output_dir': './results/',
 'restore_file': None,
 'results_file': './results/results.txt',
 'seed': 1,
 'start_epoch': 0,
 'train': True}
RealNVP(
  (net): FlowSequential(
    (0): LinearMaskedCoupling(
      (s_net): Sequential(
        (0): Linear(in_features=784, out_features=100, bias=True)
        (1): Tanh()
        (2): Linear(in_features=100, out_features=100, bias=True)
        (3): Tanh()
        (4): Linear(in_features=100, out_features=784, bias=True)
      )
      (t_net): Sequential(
        (0): Linear(in_features=784, out_features=100, bias=True)
        (1): ReLU()
        (2): Linear(in_features=100, out_features=100, bias=True)
        (3): ReLU()
        (4): Linear(in_features=100, out_features=784, bias=True)
      )
    )
    (1): BatchNorm()
    (2): LinearMaskedCoupling(
      (s_net): Sequential(
        (0): Linear(in_features=784, out_features=100, bias=True)
        (1): Tanh()
        (2): Linear(in_features=100, out_features=100, bias=True)
        (3): Tanh()
        (4): Linear(in_features=100, out_features=784, bias=True)
      )
      (t_net): Sequential(
        (0): Linear(in_features=784, out_features=100, bias=True)
        (1): ReLU()
        (2): Linear(in_features=100, out_features=100, bias=True)
        (3): ReLU()
        (4): Linear(in_features=100, out_features=784, bias=True)
      )
    )
    (3): BatchNorm()
    (4): LinearMaskedCoupling(
      (s_net): Sequential(
        (0): Linear(in_features=784, out_features=100, bias=True)
        (1): Tanh()
        (2): Linear(in_features=100, out_features=100, bias=True)
        (3): Tanh()
        (4): Linear(in_features=100, out_features=784, bias=True)
      )
      (t_net): Sequential(
        (0): Linear(in_features=784, out_features=100, bias=True)
        (1): ReLU()
        (2): Linear(in_features=100, out_features=100, bias=True)
        (3): ReLU()
        (4): Linear(in_features=100, out_features=784, bias=True)
      )
    )
    (5): BatchNorm()
    (6): LinearMaskedCoupling(
      (s_net): Sequential(
        (0): Linear(in_features=784, out_features=100, bias=True)
        (1): Tanh()
        (2): Linear(in_features=100, out_features=100, bias=True)
        (3): Tanh()
        (4): Linear(in_features=100, out_features=784, bias=True)
      )
      (t_net): Sequential(
        (0): Linear(in_features=784, out_features=100, bias=True)
        (1): ReLU()
        (2): Linear(in_features=100, out_features=100, bias=True)
        (3): ReLU()
        (4): Linear(in_features=100, out_features=784, bias=True)
      )
    )
    (7): BatchNorm()
    (8): LinearMaskedCoupling(
      (s_net): Sequential(
        (0): Linear(in_features=784, out_features=100, bias=True)
        (1): Tanh()
        (2): Linear(in_features=100, out_features=100, bias=True)
        (3): Tanh()
        (4): Linear(in_features=100, out_features=784, bias=True)
      )
      (t_net): Sequential(
        (0): Linear(in_features=784, out_features=100, bias=True)
        (1): ReLU()
        (2): Linear(in_features=100, out_features=100, bias=True)
        (3): ReLU()
        (4): Linear(in_features=100, out_features=784, bias=True)
      )
    )
    (9): BatchNorm()
  )
)
Evaluate (epoch 0) -- logp(x) = -1412.367 +/- 1.620
Evaluate logp(x) = -1412.367 +/- 1.620
{'batch_size': 32,
 'cond_label_size': None,
 'conditional': False,
 'data_dir': './data/',
 'dataset': 'MNIST',
 'device': device(type='cpu'),
 'evaluate': True,
 'flip_toy_var_order': False,
 'generate': True,
 'hidden_size': 100,
 'input_dims': (1, 28, 28),
 'input_size': 784,
 'log_interval': 1000,
 'lr': 0.0001,
 'model': 'realnvp',
 'n_blocks': 5,
 'n_components': 1,
 'n_epochs': 2,
 'n_hidden': 1,
 'no_batch_norm': False,
 'no_cuda': False,
 'output_dir': './results/',
 'restore_file': None,
 'results_file': './results/results.txt',
 'seed': 1,
 'start_epoch': 0,
 'train': True}
RealNVP(
  (net): FlowSequential(
    (0): LinearMaskedCoupling(
      (s_net): Sequential(
        (0): Linear(in_features=784, out_features=100, bias=True)
        (1): Tanh()
        (2): Linear(in_features=100, out_features=100, bias=True)
        (3): Tanh()
        (4): Linear(in_features=100, out_features=784, bias=True)
      )
      (t_net): Sequential(
        (0): Linear(in_features=784, out_features=100, bias=True)
        (1): ReLU()
        (2): Linear(in_features=100, out_features=100, bias=True)
        (3): ReLU()
        (4): Linear(in_features=100, out_features=784, bias=True)
      )
    )
    (1): BatchNorm()
    (2): LinearMaskedCoupling(
      (s_net): Sequential(
        (0): Linear(in_features=784, out_features=100, bias=True)
        (1): Tanh()
        (2): Linear(in_features=100, out_features=100, bias=True)
        (3): Tanh()
        (4): Linear(in_features=100, out_features=784, bias=True)
      )
      (t_net): Sequential(
        (0): Linear(in_features=784, out_features=100, bias=True)
        (1): ReLU()
        (2): Linear(in_features=100, out_features=100, bias=True)
        (3): ReLU()
        (4): Linear(in_features=100, out_features=784, bias=True)
      )
    )
    (3): BatchNorm()
    (4): LinearMaskedCoupling(
      (s_net): Sequential(
        (0): Linear(in_features=784, out_features=100, bias=True)
        (1): Tanh()
        (2): Linear(in_features=100, out_features=100, bias=True)
        (3): Tanh()
        (4): Linear(in_features=100, out_features=784, bias=True)
      )
      (t_net): Sequential(
        (0): Linear(in_features=784, out_features=100, bias=True)
        (1): ReLU()
        (2): Linear(in_features=100, out_features=100, bias=True)
        (3): ReLU()
        (4): Linear(in_features=100, out_features=784, bias=True)
      )
    )
    (5): BatchNorm()
    (6): LinearMaskedCoupling(
      (s_net): Sequential(
        (0): Linear(in_features=784, out_features=100, bias=True)
        (1): Tanh()
        (2): Linear(in_features=100, out_features=100, bias=True)
        (3): Tanh()
        (4): Linear(in_features=100, out_features=784, bias=True)
      )
      (t_net): Sequential(
        (0): Linear(in_features=784, out_features=100, bias=True)
        (1): ReLU()
        (2): Linear(in_features=100, out_features=100, bias=True)
        (3): ReLU()
        (4): Linear(in_features=100, out_features=784, bias=True)
      )
    )
    (7): BatchNorm()
    (8): LinearMaskedCoupling(
      (s_net): Sequential(
        (0): Linear(in_features=784, out_features=100, bias=True)
        (1): Tanh()
        (2): Linear(in_features=100, out_features=100, bias=True)
        (3): Tanh()
        (4): Linear(in_features=100, out_features=784, bias=True)
      )
      (t_net): Sequential(
        (0): Linear(in_features=784, out_features=100, bias=True)
        (1): ReLU()
        (2): Linear(in_features=100, out_features=100, bias=True)
        (3): ReLU()
        (4): Linear(in_features=100, out_features=784, bias=True)
      )
    )
    (9): BatchNorm()
  )
)
Evaluate (epoch 0) -- logp(x) = -1412.367 +/- 1.620
Evaluate (epoch 1) -- logp(x) = -1382.816 +/- 1.512
Evaluate logp(x) = -1382.816 +/- 1.512
{'batch_size': 32,
 'cond_label_size': None,
 'data_dir': './data/',
 'dataset': 'MNIST',
 'device': device(type='cpu'),
 'evaluate': True,
 'flip_toy_var_order': False,
 'generate': True,
 'hidden_size': 100,
 'input_dims': (1, 28, 28),
 'input_size': 784,
 'log_interval': 1000,
 'lr': 0.0001,
 'model': 'realnvp',
 'n_blocks': 5,
 'n_components': 1,
 'n_epochs': 50,
 'n_hidden': 1,
 'no_batch_norm': False,
 'no_cuda': False,
 'output_dir': './results/',
 'restore_file': None,
 'results_file': './results/results.txt',
 'seed': 1,
 'start_epoch': 0,
 'train': True}
RealNVP(
  (net): FlowSequential(
    (0): LinearMaskedCoupling(
      (s_net): Sequential(
        (0): Linear(in_features=784, out_features=100, bias=True)
        (1): Tanh()
        (2): Linear(in_features=100, out_features=100, bias=True)
        (3): Tanh()
        (4): Linear(in_features=100, out_features=784, bias=True)
      )
      (t_net): Sequential(
        (0): Linear(in_features=784, out_features=100, bias=True)
        (1): ReLU()
        (2): Linear(in_features=100, out_features=100, bias=True)
        (3): ReLU()
        (4): Linear(in_features=100, out_features=784, bias=True)
      )
    )
    (1): BatchNorm()
    (2): LinearMaskedCoupling(
      (s_net): Sequential(
        (0): Linear(in_features=784, out_features=100, bias=True)
        (1): Tanh()
        (2): Linear(in_features=100, out_features=100, bias=True)
        (3): Tanh()
        (4): Linear(in_features=100, out_features=784, bias=True)
      )
      (t_net): Sequential(
        (0): Linear(in_features=784, out_features=100, bias=True)
        (1): ReLU()
        (2): Linear(in_features=100, out_features=100, bias=True)
        (3): ReLU()
        (4): Linear(in_features=100, out_features=784, bias=True)
      )
    )
    (3): BatchNorm()
    (4): LinearMaskedCoupling(
      (s_net): Sequential(
        (0): Linear(in_features=784, out_features=100, bias=True)
        (1): Tanh()
        (2): Linear(in_features=100, out_features=100, bias=True)
        (3): Tanh()
        (4): Linear(in_features=100, out_features=784, bias=True)
      )
      (t_net): Sequential(
        (0): Linear(in_features=784, out_features=100, bias=True)
        (1): ReLU()
        (2): Linear(in_features=100, out_features=100, bias=True)
        (3): ReLU()
        (4): Linear(in_features=100, out_features=784, bias=True)
      )
    )
    (5): BatchNorm()
    (6): LinearMaskedCoupling(
      (s_net): Sequential(
        (0): Linear(in_features=784, out_features=100, bias=True)
        (1): Tanh()
        (2): Linear(in_features=100, out_features=100, bias=True)
        (3): Tanh()
        (4): Linear(in_features=100, out_features=784, bias=True)
      )
      (t_net): Sequential(
        (0): Linear(in_features=784, out_features=100, bias=True)
        (1): ReLU()
        (2): Linear(in_features=100, out_features=100, bias=True)
        (3): ReLU()
        (4): Linear(in_features=100, out_features=784, bias=True)
      )
    )
    (7): BatchNorm()
    (8): LinearMaskedCoupling(
      (s_net): Sequential(
        (0): Linear(in_features=784, out_features=100, bias=True)
        (1): Tanh()
        (2): Linear(in_features=100, out_features=100, bias=True)
        (3): Tanh()
        (4): Linear(in_features=100, out_features=784, bias=True)
      )
      (t_net): Sequential(
        (0): Linear(in_features=784, out_features=100, bias=True)
        (1): ReLU()
        (2): Linear(in_features=100, out_features=100, bias=True)
        (3): ReLU()
        (4): Linear(in_features=100, out_features=784, bias=True)
      )
    )
    (9): BatchNorm()
  )
)
{'batch_size': 32,
 'cond_label_size': None,
 'data_dir': './data/',
 'dataset': 'MNIST',
 'device': device(type='cpu'),
 'evaluate': True,
 'flip_toy_var_order': False,
 'generate': True,
 'hidden_size': 100,
 'input_dims': (1, 28, 28),
 'input_size': 784,
 'log_interval': 1000,
 'lr': 0.0001,
 'model': 'realnvp',
 'n_blocks': 5,
 'n_components': 1,
 'n_epochs': 1,
 'n_hidden': 1,
 'no_batch_norm': False,
 'no_cuda': False,
 'output_dir': './results/',
 'restore_file': None,
 'results_file': './results/results.txt',
 'seed': 1,
 'start_epoch': 0,
 'train': True}
RealNVP(
  (net): FlowSequential(
    (0): LinearMaskedCoupling(
      (s_net): Sequential(
        (0): Linear(in_features=784, out_features=100, bias=True)
        (1): Tanh()
        (2): Linear(in_features=100, out_features=100, bias=True)
        (3): Tanh()
        (4): Linear(in_features=100, out_features=784, bias=True)
      )
      (t_net): Sequential(
        (0): Linear(in_features=784, out_features=100, bias=True)
        (1): ReLU()
        (2): Linear(in_features=100, out_features=100, bias=True)
        (3): ReLU()
        (4): Linear(in_features=100, out_features=784, bias=True)
      )
    )
    (1): BatchNorm()
    (2): LinearMaskedCoupling(
      (s_net): Sequential(
        (0): Linear(in_features=784, out_features=100, bias=True)
        (1): Tanh()
        (2): Linear(in_features=100, out_features=100, bias=True)
        (3): Tanh()
        (4): Linear(in_features=100, out_features=784, bias=True)
      )
      (t_net): Sequential(
        (0): Linear(in_features=784, out_features=100, bias=True)
        (1): ReLU()
        (2): Linear(in_features=100, out_features=100, bias=True)
        (3): ReLU()
        (4): Linear(in_features=100, out_features=784, bias=True)
      )
    )
    (3): BatchNorm()
    (4): LinearMaskedCoupling(
      (s_net): Sequential(
        (0): Linear(in_features=784, out_features=100, bias=True)
        (1): Tanh()
        (2): Linear(in_features=100, out_features=100, bias=True)
        (3): Tanh()
        (4): Linear(in_features=100, out_features=784, bias=True)
      )
      (t_net): Sequential(
        (0): Linear(in_features=784, out_features=100, bias=True)
        (1): ReLU()
        (2): Linear(in_features=100, out_features=100, bias=True)
        (3): ReLU()
        (4): Linear(in_features=100, out_features=784, bias=True)
      )
    )
    (5): BatchNorm()
    (6): LinearMaskedCoupling(
      (s_net): Sequential(
        (0): Linear(in_features=784, out_features=100, bias=True)
        (1): Tanh()
        (2): Linear(in_features=100, out_features=100, bias=True)
        (3): Tanh()
        (4): Linear(in_features=100, out_features=784, bias=True)
      )
      (t_net): Sequential(
        (0): Linear(in_features=784, out_features=100, bias=True)
        (1): ReLU()
        (2): Linear(in_features=100, out_features=100, bias=True)
        (3): ReLU()
        (4): Linear(in_features=100, out_features=784, bias=True)
      )
    )
    (7): BatchNorm()
    (8): LinearMaskedCoupling(
      (s_net): Sequential(
        (0): Linear(in_features=784, out_features=100, bias=True)
        (1): Tanh()
        (2): Linear(in_features=100, out_features=100, bias=True)
        (3): Tanh()
        (4): Linear(in_features=100, out_features=784, bias=True)
      )
      (t_net): Sequential(
        (0): Linear(in_features=784, out_features=100, bias=True)
        (1): ReLU()
        (2): Linear(in_features=100, out_features=100, bias=True)
        (3): ReLU()
        (4): Linear(in_features=100, out_features=784, bias=True)
      )
    )
    (9): BatchNorm()
  )
)
Evaluate (epoch 0) -- logp(x) = -1412.367 +/- 1.620
Evaluate logp(x) = -1412.367 +/- 1.620

RealNVP(
  (net): FlowSequential(
    (0): LinearMaskedCoupling(
      (s_net): Sequential(
        (0): Linear(in_features=784, out_features=100, bias=True)
        (1): Tanh()
        (2): Linear(in_features=100, out_features=100, bias=True)
        (3): Tanh()
        (4): Linear(in_features=100, out_features=784, bias=True)
      )
      (t_net): Sequential(
        (0): Linear(in_features=784, out_features=100, bias=True)
        (1): ReLU()
        (2): Linear(in_features=100, out_features=100, bias=True)
        (3): ReLU()
        (4): Linear(in_features=100, out_features=784, bias=True)
      )
    )
    (1): BatchNorm()
    (2): LinearMaskedCoupling(
      (s_net): Sequential(
        (0): Linear(in_features=784, out_features=100, bias=True)
        (1): Tanh()
        (2): Linear(in_features=100, out_features=100, bias=True)
        (3): Tanh()
        (4): Linear(in_features=100, out_features=784, bias=True)
      )
      (t_net): Sequential(
        (0): Linear(in_features=784, out_features=100, bias=True)
        (1): ReLU()
        (2): Linear(in_features=100, out_features=100, bias=True)
        (3): ReLU()
        (4): Linear(in_features=100, out_features=784, bias=True)
      )
    )
    (3): BatchNorm()
    (4): LinearMaskedCoupling(
      (s_net): Sequential(
        (0): Linear(in_features=784, out_features=100, bias=True)
        (1): Tanh()
        (2): Linear(in_features=100, out_features=100, bias=True)
        (3): Tanh()
        (4): Linear(in_features=100, out_features=784, bias=True)
      )
      (t_net): Sequential(
        (0): Linear(in_features=784, out_features=100, bias=True)
        (1): ReLU()
        (2): Linear(in_features=100, out_features=100, bias=True)
        (3): ReLU()
        (4): Linear(in_features=100, out_features=784, bias=True)
      )
    )
    (5): BatchNorm()
    (6): LinearMaskedCoupling(
      (s_net): Sequential(
        (0): Linear(in_features=784, out_features=100, bias=True)
        (1): Tanh()
        (2): Linear(in_features=100, out_features=100, bias=True)
        (3): Tanh()
        (4): Linear(in_features=100, out_features=784, bias=True)
      )
      (t_net): Sequential(
        (0): Linear(in_features=784, out_features=100, bias=True)
        (1): ReLU()
        (2): Linear(in_features=100, out_features=100, bias=True)
        (3): ReLU()
        (4): Linear(in_features=100, out_features=784, bias=True)
      )
    )
    (7): BatchNorm()
    (8): LinearMaskedCoupling(
      (s_net): Sequential(
        (0): Linear(in_features=784, out_features=100, bias=True)
        (1): Tanh()
        (2): Linear(in_features=100, out_features=100, bias=True)
        (3): Tanh()
        (4): Linear(in_features=100, out_features=784, bias=True)
      )
      (t_net): Sequential(
        (0): Linear(in_features=784, out_features=100, bias=True)
        (1): ReLU()
        (2): Linear(in_features=100, out_features=100, bias=True)
        (3): ReLU()
        (4): Linear(in_features=100, out_features=784, bias=True)
      )
    )
    (9): BatchNorm()
  )
)
Evaluate (epoch 0) -- logp(x) = -1411.844 +/- 1.609
Evaluate (epoch 1) -- logp(x) = -1382.885 +/- 1.508
Evaluate (epoch 2) -- logp(x) = -1368.333 +/- 1.479
Evaluate (epoch 3) -- logp(x) = -1358.792 +/- 1.454
Evaluate (epoch 4) -- logp(x) = -1351.161 +/- 1.454
Evaluate (epoch 5) -- logp(x) = -1345.864 +/- 1.430
Evaluate (epoch 6) -- logp(x) = -1340.709 +/- 1.433
Evaluate (epoch 7) -- logp(x) = -1337.685 +/- 1.438
Evaluate (epoch 8) -- logp(x) = -1334.303 +/- 1.430
Evaluate (epoch 9) -- logp(x) = -1331.307 +/- 1.432
Evaluate (epoch 10) -- logp(x) = -1329.118 +/- 1.434
Evaluate (epoch 11) -- logp(x) = -1327.013 +/- 1.436
Evaluate (epoch 12) -- logp(x) = -1324.659 +/- 1.441
Evaluate (epoch 13) -- logp(x) = -1322.254 +/- 1.428
Evaluate (epoch 14) -- logp(x) = -1321.055 +/- 1.446
Evaluate (epoch 15) -- logp(x) = -1319.532 +/- 1.444
Evaluate (epoch 16) -- logp(x) = -1318.688 +/- 1.441
Evaluate (epoch 17) -- logp(x) = -1315.956 +/- 1.462
Evaluate (epoch 18) -- logp(x) = -1315.327 +/- 1.426
Evaluate (epoch 19) -- logp(x) = -1313.589 +/- 1.456
Evaluate (epoch 20) -- logp(x) = -1312.249 +/- 1.446
Evaluate (epoch 21) -- logp(x) = -1311.160 +/- 1.444
Evaluate (epoch 22) -- logp(x) = -1309.542 +/- 1.477
Evaluate (epoch 23) -- logp(x) = -1309.432 +/- 1.474
Evaluate (epoch 24) -- logp(x) = -1307.398 +/- 1.465
Evaluate (epoch 25) -- logp(x) = -1306.121 +/- 1.458
Evaluate (epoch 26) -- logp(x) = -1305.334 +/- 1.478
Evaluate (epoch 27) -- logp(x) = -1304.724 +/- 1.492
Evaluate (epoch 28) -- logp(x) = -1303.906 +/- 1.471
Evaluate (epoch 29) -- logp(x) = -1302.386 +/- 1.476
Evaluate (epoch 30) -- logp(x) = -1301.646 +/- 1.471
Evaluate (epoch 31) -- logp(x) = -1300.542 +/- 1.492
Evaluate (epoch 32) -- logp(x) = -1299.857 +/- 1.505
Evaluate (epoch 33) -- logp(x) = -1298.531 +/- 1.505
Evaluate (epoch 34) -- logp(x) = -1298.080 +/- 1.500
Evaluate (epoch 35) -- logp(x) = -1298.096 +/- 1.507
Evaluate (epoch 36) -- logp(x) = -1296.863 +/- 1.502
Evaluate (epoch 37) -- logp(x) = -1295.652 +/- 1.505
Evaluate (epoch 38) -- logp(x) = -1294.386 +/- 1.531
Evaluate (epoch 39) -- logp(x) = -1295.029 +/- 1.529
Evaluate (epoch 40) -- logp(x) = -1294.598 +/- 1.516
Evaluate (epoch 41) -- logp(x) = -1293.793 +/- 1.510
Evaluate (epoch 42) -- logp(x) = -1292.668 +/- 1.534
Evaluate (epoch 43) -- logp(x) = -1292.588 +/- 1.538
Evaluate (epoch 44) -- logp(x) = -1290.994 +/- 1.536
Evaluate (epoch 45) -- logp(x) = -1291.067 +/- 1.533
Evaluate (epoch 46) -- logp(x) = -1290.640 +/- 1.540
Evaluate (epoch 47) -- logp(x) = -1289.833 +/- 1.550
Evaluate (epoch 48) -- logp(x) = -1289.464 +/- 1.519
Evaluate (epoch 49) -- logp(x) = -1287.883 +/- 1.545
Evaluate logp(x) = -1287.883 +/- 1.545

RealNVP(
  (net): FlowSequential(
    (0): LinearMaskedCoupling(
      (s_net): Sequential(
        (0): Linear(in_features=784, out_features=100, bias=True)
        (1): Tanh()
        (2): Linear(in_features=100, out_features=100, bias=True)
        (3): Tanh()
        (4): Linear(in_features=100, out_features=784, bias=True)
      )
      (t_net): Sequential(
        (0): Linear(in_features=784, out_features=100, bias=True)
        (1): ReLU()
        (2): Linear(in_features=100, out_features=100, bias=True)
        (3): ReLU()
        (4): Linear(in_features=100, out_features=784, bias=True)
      )
    )
    (1): BatchNorm()
    (2): LinearMaskedCoupling(
      (s_net): Sequential(
        (0): Linear(in_features=784, out_features=100, bias=True)
        (1): Tanh()
        (2): Linear(in_features=100, out_features=100, bias=True)
        (3): Tanh()
        (4): Linear(in_features=100, out_features=784, bias=True)
      )
      (t_net): Sequential(
        (0): Linear(in_features=784, out_features=100, bias=True)
        (1): ReLU()
        (2): Linear(in_features=100, out_features=100, bias=True)
        (3): ReLU()
        (4): Linear(in_features=100, out_features=784, bias=True)
      )
    )
    (3): BatchNorm()
    (4): LinearMaskedCoupling(
      (s_net): Sequential(
        (0): Linear(in_features=784, out_features=100, bias=True)
        (1): Tanh()
        (2): Linear(in_features=100, out_features=100, bias=True)
        (3): Tanh()
        (4): Linear(in_features=100, out_features=784, bias=True)
      )
      (t_net): Sequential(
        (0): Linear(in_features=784, out_features=100, bias=True)
        (1): ReLU()
        (2): Linear(in_features=100, out_features=100, bias=True)
        (3): ReLU()
        (4): Linear(in_features=100, out_features=784, bias=True)
      )
    )
    (5): BatchNorm()
    (6): LinearMaskedCoupling(
      (s_net): Sequential(
        (0): Linear(in_features=784, out_features=100, bias=True)
        (1): Tanh()
        (2): Linear(in_features=100, out_features=100, bias=True)
        (3): Tanh()
        (4): Linear(in_features=100, out_features=784, bias=True)
      )
      (t_net): Sequential(
        (0): Linear(in_features=784, out_features=100, bias=True)
        (1): ReLU()
        (2): Linear(in_features=100, out_features=100, bias=True)
        (3): ReLU()
        (4): Linear(in_features=100, out_features=784, bias=True)
      )
    )
    (7): BatchNorm()
    (8): LinearMaskedCoupling(
      (s_net): Sequential(
        (0): Linear(in_features=784, out_features=100, bias=True)
        (1): Tanh()
        (2): Linear(in_features=100, out_features=100, bias=True)
        (3): Tanh()
        (4): Linear(in_features=100, out_features=784, bias=True)
      )
      (t_net): Sequential(
        (0): Linear(in_features=784, out_features=100, bias=True)
        (1): ReLU()
        (2): Linear(in_features=100, out_features=100, bias=True)
        (3): ReLU()
        (4): Linear(in_features=100, out_features=784, bias=True)
      )
    )
    (9): BatchNorm()
  )
)

RealNVP(
  (net): FlowSequential(
    (0): LinearMaskedCoupling(
      (s_net): Sequential(
        (0): Linear(in_features=784, out_features=100, bias=True)
        (1): Tanh()
        (2): Linear(in_features=100, out_features=100, bias=True)
        (3): Tanh()
        (4): Linear(in_features=100, out_features=784, bias=True)
      )
      (t_net): Sequential(
        (0): Linear(in_features=784, out_features=100, bias=True)
        (1): ReLU()
        (2): Linear(in_features=100, out_features=100, bias=True)
        (3): ReLU()
        (4): Linear(in_features=100, out_features=784, bias=True)
      )
    )
    (1): BatchNorm()
    (2): LinearMaskedCoupling(
      (s_net): Sequential(
        (0): Linear(in_features=784, out_features=100, bias=True)
        (1): Tanh()
        (2): Linear(in_features=100, out_features=100, bias=True)
        (3): Tanh()
        (4): Linear(in_features=100, out_features=784, bias=True)
      )
      (t_net): Sequential(
        (0): Linear(in_features=784, out_features=100, bias=True)
        (1): ReLU()
        (2): Linear(in_features=100, out_features=100, bias=True)
        (3): ReLU()
        (4): Linear(in_features=100, out_features=784, bias=True)
      )
    )
    (3): BatchNorm()
    (4): LinearMaskedCoupling(
      (s_net): Sequential(
        (0): Linear(in_features=784, out_features=100, bias=True)
        (1): Tanh()
        (2): Linear(in_features=100, out_features=100, bias=True)
        (3): Tanh()
        (4): Linear(in_features=100, out_features=784, bias=True)
      )
      (t_net): Sequential(
        (0): Linear(in_features=784, out_features=100, bias=True)
        (1): ReLU()
        (2): Linear(in_features=100, out_features=100, bias=True)
        (3): ReLU()
        (4): Linear(in_features=100, out_features=784, bias=True)
      )
    )
    (5): BatchNorm()
    (6): LinearMaskedCoupling(
      (s_net): Sequential(
        (0): Linear(in_features=784, out_features=100, bias=True)
        (1): Tanh()
        (2): Linear(in_features=100, out_features=100, bias=True)
        (3): Tanh()
        (4): Linear(in_features=100, out_features=784, bias=True)
      )
      (t_net): Sequential(
        (0): Linear(in_features=784, out_features=100, bias=True)
        (1): ReLU()
        (2): Linear(in_features=100, out_features=100, bias=True)
        (3): ReLU()
        (4): Linear(in_features=100, out_features=784, bias=True)
      )
    )
    (7): BatchNorm()
    (8): LinearMaskedCoupling(
      (s_net): Sequential(
        (0): Linear(in_features=784, out_features=100, bias=True)
        (1): Tanh()
        (2): Linear(in_features=100, out_features=100, bias=True)
        (3): Tanh()
        (4): Linear(in_features=100, out_features=784, bias=True)
      )
      (t_net): Sequential(
        (0): Linear(in_features=784, out_features=100, bias=True)
        (1): ReLU()
        (2): Linear(in_features=100, out_features=100, bias=True)
        (3): ReLU()
        (4): Linear(in_features=100, out_features=784, bias=True)
      )
    )
    (9): BatchNorm()
  )
)
Evaluate (epoch 0) -- logp(x) = -1411.844 +/- 1.609
Evaluate (epoch 1) -- logp(x) = -1382.885 +/- 1.508
Evaluate (epoch 2) -- logp(x) = -1368.333 +/- 1.479
Evaluate (epoch 3) -- logp(x) = -1358.792 +/- 1.454
Evaluate logp(x) = -1358.792 +/- 1.454
